benchmark,model,property,algorithm,seed,simulations,time,robustness,falsified,input,control points,exploration ratio,budget
CC1,cars,"□_[0.0, 100.0] ((y5 - y4) <= 40.0)",adaptive,0,1,25,-44.1251492448204,yes,[0.0 0.5 0.0; 50.0 1.0 1.0; 100.0 1.0 1.0],2 2 3 3 3 4,0.25,300
CC1,cars,"□_[0.0, 100.0] ((y5 - y4) <= 40.0)",adaptive,6.14679465208355E+018,1,1,-50.6333863126072,yes,[0.0 0.625 0.0; 33.333333333333336 1.0 1.0; 83.33333333333334 1.0 1.0; 100.0 1.0 1.0],2 2 3 3 3 4,0.25,300
CC1,cars,"□_[0.0, 100.0] ((y5 - y4) <= 40.0)",adaptive,-6.73330143966654E+018,2,2,-44.1251492448204,yes,[0.0 0.5 0.0; 50.0 1.0 1.0; 100.0 1.0 1.0],2 2 3 3 3 4,0.25,300
CC1,cars,"□_[0.0, 100.0] ((y5 - y4) <= 40.0)",adaptive,-6.46584139962186E+018,1,1,-44.1251492448204,yes,[0.0 0.5 0.0; 50.0 0.0 1.0; 100.0 0.0 1.0],2 2 3 3 3 4,0.25,300
CC1,cars,"□_[0.0, 100.0] ((y5 - y4) <= 40.0)",adaptive,4.2153099200016E+018,3,2,-126.664735610554,yes,[0.0 0.0 0.75; 33.333333333333336 1.0 0.0; 83.33333333333334 0.625 1.0; 100.0 0.625 1.0],2 2 3 3 3 4,0.25,300
CC1,cars,"□_[0.0, 100.0] ((y5 - y4) <= 40.0)",adaptive,9.10626035410653E+018,4,3,-44.125149991409,yes,[0.0 0.0 1.0; 50.0 0.5 0.0; 100.0 0.5 0.0],2 2 3 3 3 4,0.25,300
CC1,cars,"□_[0.0, 100.0] ((y5 - y4) <= 40.0)",adaptive,-3.73399141139693E+018,1,0,-214.278105262597,yes,[0.0 1.0 0.0; 50.0 0.25 0.0; 83.33333333333334 1.0 1.0; 100.0 1.0 1.0],2 2 3 3 3 4,0.25,300
CC1,cars,"□_[0.0, 100.0] ((y5 - y4) <= 40.0)",adaptive,8.26667018756629E+018,10,9,-93.1141598309391,yes,[0.0 0.0 0.0; 50.0 1.0 0.0; 100.0 1.0 0.0],2 2 3 3 3 4,0.25,300
CC1,cars,"□_[0.0, 100.0] ((y5 - y4) <= 40.0)",adaptive,7.99401484480238E+018,1,0,-44.125149991409,yes,[0.0 0.0 1.0; 50.0 0.5 0.0; 100.0 0.5 0.0],2 2 3 3 3 4,0.25,300
CC1,cars,"□_[0.0, 100.0] ((y5 - y4) <= 40.0)",adaptive,7.30680465905034E+018,5,4,-251.227766016851,yes,[0.0 1.0 0.0; 50.0 0.75 0.0; 83.33333333333334 1.0 0.0; 100.0 1.0 0.0],2 2 3 3 3 4,0.25,300
CC1,cars,"□_[0.0, 100.0] ((y5 - y4) <= 40.0)",adaptive,-6.75163084564102E+018,2,2,-126.123073560118,yes,[0.0 1.0 0.0; 50.0 0.0 1.0; 100.0 0.0 1.0],2 2 3 3 3 4,0.25,300
CC1,cars,"□_[0.0, 100.0] ((y5 - y4) <= 40.0)",adaptive,-5.3692493420756E+018,4,5,-19.6677377358483,yes,[0.0 1.0 0.125; 33.333333333333336 1.0 0.5; 83.33333333333334 1.0 1.0; 100.0 1.0 1.0],2 2 3 3 3 4,0.25,300
CC1,cars,"□_[0.0, 100.0] ((y5 - y4) <= 40.0)",adaptive,7.76604356150302E+018,5,4,-7.37012733159148,yes,[0.0 1.0 0.1875; 33.333333333333336 1.0 1.0; 83.33333333333334 1.0 1.0; 100.0 1.0 1.0],2 2 3 3 3 4,0.25,300
CC1,cars,"□_[0.0, 100.0] ((y5 - y4) <= 40.0)",adaptive,1.17939234266354E+017,2,1,-96.9657446857341,yes,[0.0 0.75 0.0; 33.333333333333336 0.0 0.0; 83.33333333333334 1.0 1.0; 100.0 1.0 1.0],2 2 3 3 3 4,0.25,300
CC1,cars,"□_[0.0, 100.0] ((y5 - y4) <= 40.0)",adaptive,-8.62548276752749E+018,1,0,-126.123074325338,yes,[0.0 0.0 0.8125; 33.333333333333336 1.0 0.0; 83.33333333333334 0.0 1.0; 100.0 0.0 1.0],2 2 3 3 3 4,0.25,300
CC1,cars,"□_[0.0, 100.0] ((y5 - y4) <= 40.0)",adaptive,-6.10900902040325E+018,6,6,-1.08180186851548,yes,[0.0 0.25 0.0; 33.333333333333336 0.5 0.0; 83.33333333333334 0.5 1.0; 100.0 0.5 1.0],2 2 3 3 3 4,0.25,300
CC1,cars,"□_[0.0, 100.0] ((y5 - y4) <= 40.0)",adaptive,-7.31109460320358E+018,3,3,-44.1251492448204,yes,[0.0 0.5 0.0; 50.0 0.5 0.0; 100.0 0.5 0.0],2 2 3 3 3 4,0.25,300
CC1,cars,"□_[0.0, 100.0] ((y5 - y4) <= 40.0)",adaptive,1.55653106272532E+018,3,3,-44.1251492448204,yes,[0.0 0.5 0.0; 50.0 0.0 0.5; 100.0 0.0 0.5],2 2 3 3 3 4,0.25,300
CC1,cars,"□_[0.0, 100.0] ((y5 - y4) <= 40.0)",adaptive,-6.3973978737056E+018,1,0,-126.81442839752,yes,[0.0 0.0 0.375; 33.333333333333336 1.0 0.0; 83.33333333333334 1.0 1.0; 100.0 1.0 1.0],2 2 3 3 3 4,0.25,300
CC1,cars,"□_[0.0, 100.0] ((y5 - y4) <= 40.0)",adaptive,-8.98199719779563E+018,4,2,-0.53243342259163,yes,[0.0 1.0 0.25; 33.333333333333336 0.5 1.0; 83.33333333333334 1.0 0.0; 100.0 1.0 0.0],2 2 3 3 3 4,0.25,300
CC1,cars,"□_[0.0, 100.0] ((y5 - y4) <= 40.0)",adaptive,1.56778663595127E+018,4,4,-126.516909234369,yes,[0.0 1.0 0.0; 50.0 0.25 1.0; 83.33333333333334 0.0 0.5; 100.0 0.0 0.5],2 2 3 3 3 4,0.25,300
CC1,cars,"□_[0.0, 100.0] ((y5 - y4) <= 40.0)",adaptive,1.0795160938946E+018,2,0,-251.227766016851,yes,[0.0 1.0 0.0; 50.0 1.0 0.0; 100.0 1.0 0.0],2 2 3 3 3 4,0.25,300
CC1,cars,"□_[0.0, 100.0] ((y5 - y4) <= 40.0)",adaptive,7.46799839538742E+017,2,0,-93.1141598309391,yes,[0.0 0.0 0.0; 50.0 1.0 0.0; 100.0 1.0 0.0],2 2 3 3 3 4,0.25,300
CC1,cars,"□_[0.0, 100.0] ((y5 - y4) <= 40.0)",adaptive,2.23180643186916E+018,1,1,-44.1251492448204,yes,[0.0 0.5 0.0; 50.0 0.0 1.0; 100.0 0.0 1.0],2 2 3 3 3 4,0.25,300
CC1,cars,"□_[0.0, 100.0] ((y5 - y4) <= 40.0)",adaptive,4.24070479775195E+018,2,2,-19.6677377358483,yes,[0.0 1.0 0.125; 33.333333333333336 0.0 0.0; 83.33333333333334 1.0 1.0; 100.0 1.0 1.0],2 2 3 3 3 4,0.25,300
CC1,cars,"□_[0.0, 100.0] ((y5 - y4) <= 40.0)",adaptive,3.83090938865778E+017,6,7,-45.5396891045569,yes,[0.0 0.5625 0.0; 33.333333333333336 1.0 1.0; 83.33333333333334 1.0 1.0; 100.0 1.0 1.0],2 2 3 3 3 4,0.25,300
CC1,cars,"□_[0.0, 100.0] ((y5 - y4) <= 40.0)",adaptive,-1.38071555906606E+017,1,1,-28.9811516133454,yes,[0.0 0.59375 0.0; 25.0 0.0 0.5; 75.0 1.0 0.0; 100.0 1.0 0.0],2 2 3 3 3 4,0.25,300
CC1,cars,"□_[0.0, 100.0] ((y5 - y4) <= 40.0)",adaptive,5.14883492039552E+018,1,1,-136.076405530526,yes,[0.0 1.0 0.0; 50.0 1.0 0.25; 83.33333333333334 1.0 0.0; 100.0 1.0 0.0],2 2 3 3 3 4,0.25,300
CC1,cars,"□_[0.0, 100.0] ((y5 - y4) <= 40.0)",adaptive,-5.74077694496837E+018,1,1,-126.814427621711,yes,[0.0 1.0 0.0; 50.0 1.0 1.0; 100.0 1.0 1.0],2 2 3 3 3 4,0.25,300
CC1,cars,"□_[0.0, 100.0] ((y5 - y4) <= 40.0)",adaptive,5.04913849650959E+018,6,3,-93.1141598309391,yes,[0.0 0.0 0.0; 50.0 1.0 0.0; 100.0 1.0 0.0],2 2 3 3 3 4,0.25,300
CC1,cars,"□_[0.0, 100.0] ((y5 - y4) <= 40.0)",adaptive,8.00150408167879E+018,2,1,-126.81442839752,yes,[0.0 0.0 0.75; 33.333333333333336 1.0 0.0; 83.33333333333334 1.0 1.0; 100.0 1.0 1.0],2 2 3 3 3 4,0.25,300
CC1,cars,"□_[0.0, 100.0] ((y5 - y4) <= 40.0)",adaptive,6.29891108673934E+017,3,2,-44.1251492448204,yes,[0.0 0.5 0.0; 50.0 1.0 1.0; 100.0 1.0 1.0],2 2 3 3 3 4,0.25,300
CC1,cars,"□_[0.0, 100.0] ((y5 - y4) <= 40.0)",adaptive,6.13527578491837E+018,9,9,-126.615253878932,yes,[0.0 1.0 0.0; 50.0 0.5 1.0; 100.0 0.5 1.0],2 2 3 3 3 4,0.25,300
CC1,cars,"□_[0.0, 100.0] ((y5 - y4) <= 40.0)",adaptive,-5.16409389363131E+018,10,10,-93.1141598309391,yes,[0.0 0.0 0.0; 50.0 1.0 0.0; 100.0 1.0 0.0],2 2 3 3 3 4,0.25,300
CC1,cars,"□_[0.0, 100.0] ((y5 - y4) <= 40.0)",adaptive,-5.08437749141627E+018,2,1,-18.3970855189479,yes,[0.0 0.375 0.0; 33.333333333333336 0.0 0.0; 83.33333333333334 1.0 0.0; 100.0 1.0 0.0],2 2 3 3 3 4,0.25,300
CC1,cars,"□_[0.0, 100.0] ((y5 - y4) <= 40.0)",adaptive,3.77540568601622E+018,9,8,-59.1448095687817,yes,[0.0 0.75 0.0; 33.333333333333336 1.0 1.0; 83.33333333333334 0.5 0.5; 100.0 0.5 0.5],2 2 3 3 3 4,0.25,300
CC1,cars,"□_[0.0, 100.0] ((y5 - y4) <= 40.0)",adaptive,-5.65412944799918E+018,10,6,-93.1141598309391,yes,[0.0 0.0 0.0; 50.0 1.0 0.0; 100.0 1.0 0.0],2 2 3 3 3 4,0.25,300
CC1,cars,"□_[0.0, 100.0] ((y5 - y4) <= 40.0)",adaptive,7.99619515863341E+018,2,0,-93.1141598309391,yes,[0.0 0.0 0.5; 50.0 1.0 0.0; 100.0 1.0 0.0],2 2 3 3 3 4,0.25,300
CC1,cars,"□_[0.0, 100.0] ((y5 - y4) <= 40.0)",adaptive,6.12720772267921E+018,4,3,-93.1141598309391,yes,[0.0 0.0 1.0; 50.0 1.0 0.0; 100.0 1.0 0.0],2 2 3 3 3 4,0.25,300
CC1,cars,"□_[0.0, 100.0] ((y5 - y4) <= 40.0)",adaptive,1.18646096785502E+018,7,6,-251.227766016848,yes,[0.0 1.0 0.0; 50.0 0.5 0.0; 100.0 0.5 0.0],2 2 3 3 3 4,0.25,300
CC1,cars,"□_[0.0, 100.0] ((y5 - y4) <= 40.0)",adaptive,-2.25045327864497E+018,21,25,-44.1251492448204,yes,[0.0 0.5 0.0; 50.0 0.5 0.5; 83.33333333333334 1.0 1.0; 100.0 1.0 1.0],2 2 3 3 3 4,0.25,300
CC1,cars,"□_[0.0, 100.0] ((y5 - y4) <= 40.0)",adaptive,-4.51722593237618E+018,9,7,-93.1141598309391,yes,[0.0 0.0 0.0; 50.0 1.0 0.0; 100.0 1.0 0.0],2 2 3 3 3 4,0.25,300
CC1,cars,"□_[0.0, 100.0] ((y5 - y4) <= 40.0)",adaptive,-2.46625135966611E+018,1,1,-58.3307994103114,yes,[0.0 0.75 0.0; 33.333333333333336 0.0 1.0; 83.33333333333334 0.0 0.75; 100.0 0.0 0.75],2 2 3 3 3 4,0.25,300
CC1,cars,"□_[0.0, 100.0] ((y5 - y4) <= 40.0)",adaptive,-4.60379960857788E+018,17,19,-7.37012733159148,yes,[0.0 1.0 0.1875; 33.333333333333336 1.0 0.0; 83.33333333333334 0.25 0.5; 100.0 0.25 0.5],2 2 3 3 3 4,0.25,300
CC1,cars,"□_[0.0, 100.0] ((y5 - y4) <= 40.0)",adaptive,1.43911994912581E+018,1,0,-1.08180206132711,yes,[0.0 0.0 0.0; 50.0 0.25 0.0; 83.33333333333334 1.0 0.0; 100.0 1.0 0.0],2 2 3 3 3 4,0.25,300
CC1,cars,"□_[0.0, 100.0] ((y5 - y4) <= 40.0)",adaptive,4.68269685727306E+018,5,6,-58.4710355518351,yes,[0.0 0.75 0.0; 33.333333333333336 0.46875 1.0; 58.333333333333336 0.0 0.0; 100.0 0.0 0.0],2 2 3 3 3 4,0.25,300
CC1,cars,"□_[0.0, 100.0] ((y5 - y4) <= 40.0)",adaptive,2.64931453460318E+018,1,1,-44.1251492448204,yes,[0.0 0.5 0.0; 50.0 0.0 1.0; 100.0 0.0 1.0],2 2 3 3 3 4,0.25,300
CC1,cars,"□_[0.0, 100.0] ((y5 - y4) <= 40.0)",adaptive,-6.63485168638721E+017,2,0,-93.1141598309391,yes,[0.0 0.0 0.0; 50.0 1.0 0.0; 100.0 1.0 0.0],2 2 3 3 3 4,0.25,300
CC1,cars,"□_[0.0, 100.0] ((y5 - y4) <= 40.0)",adaptive,6.05669656076872E+016,1,0,-44.125149991409,yes,[0.0 0.0 1.0; 50.0 0.5 0.0; 100.0 0.5 0.0],2 2 3 3 3 4,0.25,300
CC1,cars,"□_[0.0, 100.0] ((y5 - y4) <= 40.0)",adaptive,8.06739552481904E+018,1,1,-126.814427621711,yes,[0.0 1.0 0.0; 50.0 1.0 1.0; 100.0 1.0 1.0],2 2 3 3 3 4,0.25,300
CC2,cars,"□_[0.0, 70.0] ◇_[0.0, 30.0] (15.0 <= (y5 - y4))",adaptive,0,6,62,-5,yes,[0.0 0.0 0.75; 33.333333333333336 0.8125 1.0; 66.66666666666667 0.0 0.0; 100.0 0.0 0.0],2 2 3 3 3 4,0.25,300
CC2,cars,"□_[0.0, 70.0] ◇_[0.0, 30.0] (15.0 <= (y5 - y4))",adaptive,-2.68423795128235E+018,1,0,-5,yes,[0.0 0.0 1.0; 50.0 0.5 0.0; 100.0 0.5 0.0],2 2 3 3 3 4,0.25,300
CC2,cars,"□_[0.0, 70.0] ◇_[0.0, 30.0] (15.0 <= (y5 - y4))",adaptive,-5.77637639347326E+018,2,1,-5,yes,[0.0 0.0 0.5; 50.0 1.0 1.0; 100.0 1.0 1.0],2 2 3 3 3 4,0.25,300
CC2,cars,"□_[0.0, 70.0] ◇_[0.0, 30.0] (15.0 <= (y5 - y4))",adaptive,5.84556794233367E+018,1,0,-5,yes,[0.0 0.0 0.5; 50.0 1.0 1.0; 100.0 1.0 1.0],2 2 3 3 3 4,0.25,300
CC2,cars,"□_[0.0, 70.0] ◇_[0.0, 30.0] (15.0 <= (y5 - y4))",adaptive,1.69250166383579E+018,2,1,-5,yes,[0.0 0.0 0.0; 50.0 0.0 1.0; 100.0 0.0 1.0],2 2 3 3 3 4,0.25,300
CC2,cars,"□_[0.0, 70.0] ◇_[0.0, 30.0] (15.0 <= (y5 - y4))",adaptive,6.47016547547666E+018,4,4,-5,yes,[0.0 0.0 0.5; 50.0 1.0 1.0; 100.0 1.0 1.0],2 2 3 3 3 4,0.25,300
CC2,cars,"□_[0.0, 70.0] ◇_[0.0, 30.0] (15.0 <= (y5 - y4))",adaptive,-6.45210483345948E+018,1,0,-5,yes,[0.0 0.125 1.0; 33.333333333333336 1.0 0.0; 83.33333333333334 1.0 0.0; 100.0 1.0 0.0],2 2 3 3 3 4,0.25,300
CC2,cars,"□_[0.0, 70.0] ◇_[0.0, 30.0] (15.0 <= (y5 - y4))",adaptive,4.01041789481677E+018,19,22,-5,yes,[0.0 0.0 1.0; 50.0 0.0 0.5; 100.0 0.0 0.5],2 2 3 3 3 4,0.25,300
CC2,cars,"□_[0.0, 70.0] ◇_[0.0, 30.0] (15.0 <= (y5 - y4))",adaptive,-1.75182263673372E+017,1,0,-5,yes,[0.0 0.0 0.0; 50.0 1.0 0.0; 100.0 1.0 0.0],2 2 3 3 3 4,0.25,300
CC2,cars,"□_[0.0, 70.0] ◇_[0.0, 30.0] (15.0 <= (y5 - y4))",adaptive,-8.31929932769452E+018,1,0,-5,yes,[0.0 0.0 0.0; 50.0 1.0 1.0; 100.0 1.0 1.0],2 2 3 3 3 4,0.25,300
CC2,cars,"□_[0.0, 70.0] ◇_[0.0, 30.0] (15.0 <= (y5 - y4))",adaptive,4.70020197867493E+018,1,0,-0.571207408923659,yes,[0.0 0.375 1.0; 33.333333333333336 1.0 0.0; 83.33333333333334 0.0 0.25; 100.0 0.0 0.25],2 2 3 3 3 4,0.25,300
CC2,cars,"□_[0.0, 70.0] ◇_[0.0, 30.0] (15.0 <= (y5 - y4))",adaptive,6.31611680882636E+018,4,4,-5,yes,[0.0 0.0 1.0; 50.0 1.0 0.5; 100.0 1.0 0.5],2 2 3 3 3 4,0.25,300
CC2,cars,"□_[0.0, 70.0] ◇_[0.0, 30.0] (15.0 <= (y5 - y4))",adaptive,1.54739450989434E+018,2,1,-5,yes,[0.0 0.0 1.0; 50.0 0.0 1.0; 100.0 0.0 1.0],2 2 3 3 3 4,0.25,300
CC2,cars,"□_[0.0, 70.0] ◇_[0.0, 30.0] (15.0 <= (y5 - y4))",adaptive,-2.82806786812933E+018,1,0,-5,yes,[0.0 0.0 0.5; 50.0 1.0 0.0; 100.0 1.0 0.0],2 2 3 3 3 4,0.25,300
CC2,cars,"□_[0.0, 70.0] ◇_[0.0, 30.0] (15.0 <= (y5 - y4))",adaptive,5.40052798203021E+018,2,1,-5,yes,[0.0 0.0 0.0; 50.0 0.5 0.0; 100.0 0.5 0.0],2 2 3 3 3 4,0.25,300
CC2,cars,"□_[0.0, 70.0] ◇_[0.0, 30.0] (15.0 <= (y5 - y4))",adaptive,-9.0429176566591E+018,1,0,-5,yes,[0.0 0.0 0.0; 50.0 1.0 1.0; 100.0 1.0 1.0],2 2 3 3 3 4,0.25,300
CC2,cars,"□_[0.0, 70.0] ◇_[0.0, 30.0] (15.0 <= (y5 - y4))",adaptive,-5.06708404492741E+018,1,0,-5,yes,[0.0 0.0 0.0; 50.0 1.0 0.0; 100.0 1.0 0.0],2 2 3 3 3 4,0.25,300
CC2,cars,"□_[0.0, 70.0] ◇_[0.0, 30.0] (15.0 <= (y5 - y4))",adaptive,9.09325114341971E+018,1,0,-5,yes,[0.0 0.0 1.0; 50.0 1.0 0.0; 100.0 1.0 0.0],2 2 3 3 3 4,0.25,300
CC2,cars,"□_[0.0, 70.0] ◇_[0.0, 30.0] (15.0 <= (y5 - y4))",adaptive,3.12353672039482E+018,30,35,-5,yes,[0.0 0.0 0.5; 50.0 0.0 1.0; 100.0 0.0 1.0],2 2 3 3 3 4,0.25,300
CC2,cars,"□_[0.0, 70.0] ◇_[0.0, 30.0] (15.0 <= (y5 - y4))",adaptive,-9.78611643891357E+017,4,4,-5,yes,[0.0 0.0 0.5; 50.0 0.5 1.0; 100.0 0.5 1.0],2 2 3 3 3 4,0.25,300
CC2,cars,"□_[0.0, 70.0] ◇_[0.0, 30.0] (15.0 <= (y5 - y4))",adaptive,4.34725574896998E+018,1,0,-5,yes,[0.0 0.0 0.5; 50.0 1.0 0.75; 83.33333333333334 0.0 1.0; 100.0 0.0 1.0],2 2 3 3 3 4,0.25,300
CC2,cars,"□_[0.0, 70.0] ◇_[0.0, 30.0] (15.0 <= (y5 - y4))",adaptive,-1.16355224901216E+018,5,5,-5,yes,[0.0 0.25 1.0; 33.333333333333336 0.0 1.0; 83.33333333333334 1.0 0.25; 100.0 1.0 0.25],2 2 3 3 3 4,0.25,300
CC2,cars,"□_[0.0, 70.0] ◇_[0.0, 30.0] (15.0 <= (y5 - y4))",adaptive,4.91286011708428E+018,1,0,-5,yes,[0.0 0.0 0.5; 50.0 0.0 1.0; 100.0 0.0 1.0],2 2 3 3 3 4,0.25,300
CC2,cars,"□_[0.0, 70.0] ◇_[0.0, 30.0] (15.0 <= (y5 - y4))",adaptive,-6.46610510904764E+017,4,3,-5,yes,[0.0 0.25 1.0; 33.333333333333336 0.8125 0.0; 66.66666666666667 1.0 1.0; 100.0 1.0 1.0],2 2 3 3 3 4,0.25,300
CC2,cars,"□_[0.0, 70.0] ◇_[0.0, 30.0] (15.0 <= (y5 - y4))",adaptive,8.02284172213808E+018,9,9,-5,yes,[0.0 0.0 1.0; 50.0 0.0 1.0; 100.0 0.0 1.0],2 2 3 3 3 4,0.25,300
CC2,cars,"□_[0.0, 70.0] ◇_[0.0, 30.0] (15.0 <= (y5 - y4))",adaptive,2.74932046751749E+018,12,13,-5,yes,[0.0 0.0 1.0; 50.0 1.0 0.5; 100.0 1.0 0.5],2 2 3 3 3 4,0.25,300
CC2,cars,"□_[0.0, 70.0] ◇_[0.0, 30.0] (15.0 <= (y5 - y4))",adaptive,7.97299516203363E+018,1,0,-5,yes,[0.0 0.25 1.0; 33.333333333333336 0.0 1.0; 83.33333333333334 1.0 1.0; 100.0 1.0 1.0],2 2 3 3 3 4,0.25,300
CC2,cars,"□_[0.0, 70.0] ◇_[0.0, 30.0] (15.0 <= (y5 - y4))",adaptive,3.78169899926682E+018,1,0,-5,yes,[0.0 0.0 1.0; 50.0 0.5 0.5; 83.33333333333334 0.0 0.5; 100.0 0.0 0.5],2 2 3 3 3 4,0.25,300
CC2,cars,"□_[0.0, 70.0] ◇_[0.0, 30.0] (15.0 <= (y5 - y4))",adaptive,-4.17952450203639E+018,1,0,-5,yes,[0.0 0.0 1.0; 50.0 0.125 1.0; 83.33333333333334 0.0 1.0; 100.0 0.0 1.0],2 2 3 3 3 4,0.25,300
CC2,cars,"□_[0.0, 70.0] ◇_[0.0, 30.0] (15.0 <= (y5 - y4))",adaptive,6.77208153545635E+018,6,6,-5,yes,[0.0 0.0 0.0; 50.0 0.5 0.0; 100.0 0.5 0.0],2 2 3 3 3 4,0.25,300
CC2,cars,"□_[0.0, 70.0] ◇_[0.0, 30.0] (15.0 <= (y5 - y4))",adaptive,-5.5876553470675E+018,1,0,-5,yes,[0.0 0.25 1.0; 33.333333333333336 0.0 0.8125; 66.66666666666667 0.0 0.5; 100.0 0.0 0.5],2 2 3 3 3 4,0.25,300
CC2,cars,"□_[0.0, 70.0] ◇_[0.0, 30.0] (15.0 <= (y5 - y4))",adaptive,2.75140681487276E+018,2,1,-5,yes,[0.0 0.0 0.5; 50.0 0.0 0.0; 100.0 0.0 0.0],2 2 3 3 3 4,0.25,300
CC2,cars,"□_[0.0, 70.0] ◇_[0.0, 30.0] (15.0 <= (y5 - y4))",adaptive,8.0122292074979E+018,6,6,-5,yes,[0.0 0.0 0.0; 50.0 0.0 0.0; 100.0 0.0 0.0],2 2 3 3 3 4,0.25,300
CC2,cars,"□_[0.0, 70.0] ◇_[0.0, 30.0] (15.0 <= (y5 - y4))",adaptive,-8.64329030737208E+017,3,3,-5,yes,[0.0 0.1875 1.0; 33.333333333333336 0.5 0.0; 83.33333333333334 1.0 1.0; 100.0 1.0 1.0],2 2 3 3 3 4,0.25,300
CC2,cars,"□_[0.0, 70.0] ◇_[0.0, 30.0] (15.0 <= (y5 - y4))",adaptive,-4.27853392441504E+018,1,0,-5,yes,[0.0 0.0 1.0; 50.0 0.75 0.25; 83.33333333333334 0.0 0.5; 100.0 0.0 0.5],2 2 3 3 3 4,0.25,300
CC2,cars,"□_[0.0, 70.0] ◇_[0.0, 30.0] (15.0 <= (y5 - y4))",adaptive,-2.91401810392063E+018,10,10,-5,yes,[0.0 0.0 1.0; 50.0 0.0 0.5; 100.0 0.0 0.5],2 2 3 3 3 4,0.25,300
CC2,cars,"□_[0.0, 70.0] ◇_[0.0, 30.0] (15.0 <= (y5 - y4))",adaptive,-3.64167033008977E+018,2,1,-5,yes,[0.0 0.0 0.0; 50.0 0.0 1.0; 100.0 0.0 1.0],2 2 3 3 3 4,0.25,300
CC2,cars,"□_[0.0, 70.0] ◇_[0.0, 30.0] (15.0 <= (y5 - y4))",adaptive,-7.28289258893724E+018,4,4,-5,yes,[0.0 0.0 1.0; 50.0 0.0 0.0; 100.0 0.0 0.0],2 2 3 3 3 4,0.25,300
CC2,cars,"□_[0.0, 70.0] ◇_[0.0, 30.0] (15.0 <= (y5 - y4))",adaptive,1.34847273166017E+017,8,9,-5,yes,[0.0 0.0 1.0; 50.0 0.25 1.0; 83.33333333333334 1.0 0.5; 100.0 1.0 0.5],2 2 3 3 3 4,0.25,300
CC2,cars,"□_[0.0, 70.0] ◇_[0.0, 30.0] (15.0 <= (y5 - y4))",adaptive,4.79814174045614E+018,3,3,-5,yes,[0.0 0.0625 1.0; 33.333333333333336 0.5 0.0; 83.33333333333334 0.0 1.0; 100.0 0.0 1.0],2 2 3 3 3 4,0.25,300
CC2,cars,"□_[0.0, 70.0] ◇_[0.0, 30.0] (15.0 <= (y5 - y4))",adaptive,2.6640533563073E+018,4,4,-5,yes,[0.0 0.25 1.0; 33.333333333333336 1.0 0.5; 83.33333333333334 0.75 0.0; 100.0 0.75 0.0],2 2 3 3 3 4,0.25,300
CC2,cars,"□_[0.0, 70.0] ◇_[0.0, 30.0] (15.0 <= (y5 - y4))",adaptive,2.91550117209943E+018,1,0,-5,yes,[0.0 0.0 1.0; 50.0 0.25 0.5; 83.33333333333334 1.0 0.0; 100.0 1.0 0.0],2 2 3 3 3 4,0.25,300
CC2,cars,"□_[0.0, 70.0] ◇_[0.0, 30.0] (15.0 <= (y5 - y4))",adaptive,7.76716335667555E+018,3,2,-5,yes,[0.0 0.0 0.0; 50.0 0.0 1.0; 100.0 0.0 1.0],2 2 3 3 3 4,0.25,300
CC2,cars,"□_[0.0, 70.0] ◇_[0.0, 30.0] (15.0 <= (y5 - y4))",adaptive,-1.20033678612998E+018,6,6,-5,yes,[0.0 0.0 1.0; 50.0 1.0 1.0; 100.0 1.0 1.0],2 2 3 3 3 4,0.25,300
CC2,cars,"□_[0.0, 70.0] ◇_[0.0, 30.0] (15.0 <= (y5 - y4))",adaptive,-3.27539236533225E+018,4,4,-5,yes,[0.0 0.0 0.75; 33.333333333333336 0.5 0.0; 83.33333333333334 0.0 1.0; 100.0 0.0 1.0],2 2 3 3 3 4,0.25,300
CC2,cars,"□_[0.0, 70.0] ◇_[0.0, 30.0] (15.0 <= (y5 - y4))",adaptive,-8.21066213608224E+018,7,7,-5,yes,[0.0 0.0 0.0; 50.0 1.0 0.0; 100.0 1.0 0.0],2 2 3 3 3 4,0.25,300
CC2,cars,"□_[0.0, 70.0] ◇_[0.0, 30.0] (15.0 <= (y5 - y4))",adaptive,5.3403703498157E+018,1,0,-5,yes,[0.0 0.0 0.75; 33.333333333333336 0.75 1.0; 66.66666666666667 1.0 0.75; 100.0 1.0 0.75],2 2 3 3 3 4,0.25,300
CC2,cars,"□_[0.0, 70.0] ◇_[0.0, 30.0] (15.0 <= (y5 - y4))",adaptive,2.68699397993296E+018,7,7,-5,yes,[0.0 0.0 1.0; 50.0 0.0 1.0; 100.0 0.0 1.0],2 2 3 3 3 4,0.25,300
CC2,cars,"□_[0.0, 70.0] ◇_[0.0, 30.0] (15.0 <= (y5 - y4))",adaptive,3.53233802553698E+018,1,0,-5,yes,[0.0 0.0 1.0; 50.0 0.0 0.0; 100.0 0.0 0.0],2 2 3 3 3 4,0.25,300
CC2,cars,"□_[0.0, 70.0] ◇_[0.0, 30.0] (15.0 <= (y5 - y4))",adaptive,-7.82418387800767E+018,1,0,-5,yes,[0.0 0.0 0.0; 50.0 0.0 0.5; 100.0 0.0 0.5],2 2 3 3 3 4,0.25,300
CC3,cars,"□_[0.0, 80.0] (□_[0.0, 20.0] ((y2 - y1) <= 20.0) || ◇_[0.0, 20.0] ((y5 - y4) <= 40.0))",adaptive,0,5,31,-0.298221281349015,yes,[0.0 0.8125 0.0; 33.333333333333336 0.0 1.0; 83.33333333333334 0.0 1.0; 100.0 0.0 1.0],2 2 3 3 3 4,0.25,300
CC3,cars,"□_[0.0, 80.0] (□_[0.0, 20.0] ((y2 - y1) <= 20.0) || ◇_[0.0, 20.0] ((y5 - y4) <= 40.0))",adaptive,-3.39535261448001E+018,8,7,-63.5437744847202,yes,[0.0 1.0 0.0; 50.0 0.25 1.0; 83.33333333333334 0.0 0.0; 100.0 0.0 0.0],2 2 3 3 3 4,0.25,300
CC3,cars,"□_[0.0, 80.0] (□_[0.0, 20.0] ((y2 - y1) <= 20.0) || ◇_[0.0, 20.0] ((y5 - y4) <= 40.0))",adaptive,7.33807480561883E+018,1,1,-76.1928851253945,yes,[0.0 1.0 0.0; 50.0 1.0 0.25; 83.33333333333334 1.0 0.0; 100.0 1.0 0.0],2 2 3 3 3 4,0.25,300
CC3,cars,"□_[0.0, 80.0] (□_[0.0, 20.0] ((y2 - y1) <= 20.0) || ◇_[0.0, 20.0] ((y5 - y4) <= 40.0))",adaptive,-5.29493059515821E+017,5,4,-25.5964425626977,yes,[0.0 0.0 1.0; 50.0 1.0 0.0; 100.0 1.0 0.0],2 2 3 3 3 4,0.25,300
CC3,cars,"□_[0.0, 80.0] (□_[0.0, 20.0] ((y2 - y1) <= 20.0) || ◇_[0.0, 20.0] ((y5 - y4) <= 40.0))",adaptive,1.26034557627566E+018,1,0,-183.710325571125,yes,[0.0 1.0 0.0; 50.0 1.0 0.0; 100.0 1.0 0.0],2 2 3 3 3 4,0.25,300
CC3,cars,"□_[0.0, 80.0] (□_[0.0, 20.0] ((y2 - y1) <= 20.0) || ◇_[0.0, 20.0] ((y5 - y4) <= 40.0))",adaptive,-3.27924504519492E+017,18,11,-25.5964425626977,yes,[0.0 0.0 1.0; 50.0 1.0 0.0; 100.0 1.0 0.0],2 2 3 3 3 4,0.25,300
CC3,cars,"□_[0.0, 80.0] (□_[0.0, 20.0] ((y2 - y1) <= 20.0) || ◇_[0.0, 20.0] ((y5 - y4) <= 40.0))",adaptive,-1.19368885818598E+018,5,3,-133.815010655803,yes,[0.0 1.0 0.0; 50.0 0.5 0.0; 100.0 0.5 0.0],2 2 3 3 3 4,0.25,300
CC3,cars,"□_[0.0, 80.0] (□_[0.0, 20.0] ((y2 - y1) <= 20.0) || ◇_[0.0, 20.0] ((y5 - y4) <= 40.0))",adaptive,2.15237800273213E+018,1,1,-76.1928851253945,yes,[0.0 1.0 0.0; 50.0 1.0 0.25; 83.33333333333334 0.0 0.5; 100.0 0.0 0.5],2 2 3 3 3 4,0.25,300
CC3,cars,"□_[0.0, 80.0] (□_[0.0, 20.0] ((y2 - y1) <= 20.0) || ◇_[0.0, 20.0] ((y5 - y4) <= 40.0))",adaptive,-6.67621925789805E+018,2,1,-120.464772367754,yes,[0.0 1.0 0.0; 50.0 0.0 0.0; 100.0 0.0 0.0],2 2 3 3 3 4,0.25,300
CC3,cars,"□_[0.0, 80.0] (□_[0.0, 20.0] ((y2 - y1) <= 20.0) || ◇_[0.0, 20.0] ((y5 - y4) <= 40.0))",adaptive,-5.95458921301404E+018,2,1,-63.5437744847202,yes,[0.0 1.0 0.0; 50.0 0.375 1.0; 83.33333333333334 0.0 0.25; 100.0 0.0 0.25],2 2 3 3 3 4,0.25,300
CC3,cars,"□_[0.0, 80.0] (□_[0.0, 20.0] ((y2 - y1) <= 20.0) || ◇_[0.0, 20.0] ((y5 - y4) <= 40.0))",adaptive,-9.08112676542447E+018,9,8,-25.5964425626977,yes,[0.0 0.0 1.0; 50.0 1.0 0.0; 100.0 1.0 0.0],2 2 3 3 3 4,0.25,300
CC3,cars,"□_[0.0, 80.0] (□_[0.0, 20.0] ((y2 - y1) <= 20.0) || ◇_[0.0, 20.0] ((y5 - y4) <= 40.0))",adaptive,-3.45526609207704E+018,12,12,-0.899807537528176,yes,[0.0 0.75 0.0; 33.333333333333336 1.0 0.0; 83.33333333333334 0.875 0.25; 100.0 0.875 0.25],2 2 3 3 3 4,0.25,300
CC3,cars,"□_[0.0, 80.0] (□_[0.0, 20.0] ((y2 - y1) <= 20.0) || ◇_[0.0, 20.0] ((y5 - y4) <= 40.0))",adaptive,-7.93208241322775E+018,5,5,-69.8683298050574,yes,[0.0 1.0 0.0; 50.0 1.0 0.5; 100.0 1.0 0.5],2 2 3 3 3 4,0.25,300
CC3,cars,"□_[0.0, 80.0] (□_[0.0, 20.0] ((y2 - y1) <= 20.0) || ◇_[0.0, 20.0] ((y5 - y4) <= 40.0))",adaptive,7.30293467960943E+018,5,4,-183.710325571125,yes,[0.0 1.0 0.0; 50.0 1.0 0.0; 100.0 1.0 0.0],2 2 3 3 3 4,0.25,300
CC3,cars,"□_[0.0, 80.0] (□_[0.0, 20.0] ((y2 - y1) <= 20.0) || ◇_[0.0, 20.0] ((y5 - y4) <= 40.0))",adaptive,-5.75689240135544E+018,14,12,-63.5437744847202,yes,[0.0 1.0 0.0; 50.0 1.0 1.0; 100.0 1.0 1.0],2 2 3 3 3 4,0.25,300
CC3,cars,"□_[0.0, 80.0] (□_[0.0, 20.0] ((y2 - y1) <= 20.0) || ◇_[0.0, 20.0] ((y5 - y4) <= 40.0))",adaptive,3.23169216752862E+017,1,1,-63.5437744847202,yes,[0.0 1.0 0.0; 50.0 0.25 1.0; 83.33333333333334 0.0 0.0; 100.0 0.0 0.0],2 2 3 3 3 4,0.25,300
CC3,cars,"□_[0.0, 80.0] (□_[0.0, 20.0] ((y2 - y1) <= 20.0) || ◇_[0.0, 20.0] ((y5 - y4) <= 40.0))",adaptive,-4.10570516284574E+018,1,0,-133.815010655803,yes,[0.0 1.0 0.0; 50.0 0.5 0.0; 100.0 0.5 0.0],2 2 3 3 3 4,0.25,300
CC3,cars,"□_[0.0, 80.0] (□_[0.0, 20.0] ((y2 - y1) <= 20.0) || ◇_[0.0, 20.0] ((y5 - y4) <= 40.0))",adaptive,1.33998317211779E+018,4,3,-69.8683298050574,yes,[0.0 1.0 0.0; 50.0 1.0 0.5; 100.0 1.0 0.5],2 2 3 3 3 4,0.25,300
CC3,cars,"□_[0.0, 80.0] (□_[0.0, 20.0] ((y2 - y1) <= 20.0) || ◇_[0.0, 20.0] ((y5 - y4) <= 40.0))",adaptive,1.36116238400905E+018,15,13,-133.815010655803,yes,[0.0 1.0 0.0; 50.0 0.5 0.0; 100.0 0.5 0.0],2 2 3 3 3 4,0.25,300
CC3,cars,"□_[0.0, 80.0] (□_[0.0, 20.0] ((y2 - y1) <= 20.0) || ◇_[0.0, 20.0] ((y5 - y4) <= 40.0))",adaptive,-1.67115214303038E+017,10,9,-25.5964425626977,yes,[0.0 0.0 0.0; 50.0 1.0 0.0; 100.0 1.0 0.0],2 2 3 3 3 4,0.25,300
CC3,cars,"□_[0.0, 80.0] (□_[0.0, 20.0] ((y2 - y1) <= 20.0) || ◇_[0.0, 20.0] ((y5 - y4) <= 40.0))",adaptive,3.56452865639117E+018,22,24,-25.5964425626977,yes,[0.0 0.0 1.0; 50.0 1.0 0.0; 100.0 1.0 0.0],2 2 3 3 3 4,0.25,300
CC3,cars,"□_[0.0, 80.0] (□_[0.0, 20.0] ((y2 - y1) <= 20.0) || ◇_[0.0, 20.0] ((y5 - y4) <= 40.0))",adaptive,6.87868991444611E+018,1,0,-25.5964425626977,yes,[0.0 0.0 0.0; 50.0 1.0 0.0; 100.0 1.0 0.0],2 2 3 3 3 4,0.25,300
CC3,cars,"□_[0.0, 80.0] (□_[0.0, 20.0] ((y2 - y1) <= 20.0) || ◇_[0.0, 20.0] ((y5 - y4) <= 40.0))",adaptive,-8.71286994330311E+018,1,0,-183.710325571125,yes,[0.0 1.0 0.0; 50.0 1.0 0.0; 100.0 1.0 0.0],2 2 3 3 3 4,0.25,300
CC3,cars,"□_[0.0, 80.0] (□_[0.0, 20.0] ((y2 - y1) <= 20.0) || ◇_[0.0, 20.0] ((y5 - y4) <= 40.0))",adaptive,4.05041311016807E+018,13,9,-142.105996091817,yes,[0.0 1.0 0.0; 50.0 0.625 0.0; 83.33333333333334 1.0 0.5; 100.0 1.0 0.5],2 2 3 3 3 4,0.25,300
CC3,cars,"□_[0.0, 80.0] (□_[0.0, 20.0] ((y2 - y1) <= 20.0) || ◇_[0.0, 20.0] ((y5 - y4) <= 40.0))",adaptive,-6.8117667452934E+018,6,4,-63.5437744847202,yes,[0.0 1.0 0.0; 50.0 0.0 1.0; 100.0 0.0 1.0],2 2 3 3 3 4,0.25,300
CC3,cars,"□_[0.0, 80.0] (□_[0.0, 20.0] ((y2 - y1) <= 20.0) || ◇_[0.0, 20.0] ((y5 - y4) <= 40.0))",adaptive,-6.81281728752704E+018,10,10,-25.5964425626977,yes,[0.0 0.0 0.5; 50.0 1.0 0.0; 100.0 1.0 0.0],2 2 3 3 3 4,0.25,300
CC3,cars,"□_[0.0, 80.0] (□_[0.0, 20.0] ((y2 - y1) <= 20.0) || ◇_[0.0, 20.0] ((y5 - y4) <= 40.0))",adaptive,6.05143365970964E+018,1,1,-63.5437744847202,yes,[0.0 1.0 0.0; 50.0 0.0 1.0; 100.0 0.0 1.0],2 2 3 3 3 4,0.25,300
CC3,cars,"□_[0.0, 80.0] (□_[0.0, 20.0] ((y2 - y1) <= 20.0) || ◇_[0.0, 20.0] ((y5 - y4) <= 40.0))",adaptive,3.18857819469727E+018,10,8,-25.5964425626977,yes,[0.0 0.0 1.0; 50.0 1.0 0.0; 100.0 1.0 0.0],2 2 3 3 3 4,0.25,300
CC3,cars,"□_[0.0, 80.0] (□_[0.0, 20.0] ((y2 - y1) <= 20.0) || ◇_[0.0, 20.0] ((y5 - y4) <= 40.0))",adaptive,2.26210593451454E+018,17,20,-63.5437744847202,yes,[0.0 1.0 0.0; 50.0 0.5 1.0; 100.0 0.5 1.0],2 2 3 3 3 4,0.25,300
CC3,cars,"□_[0.0, 80.0] (□_[0.0, 20.0] ((y2 - y1) <= 20.0) || ◇_[0.0, 20.0] ((y5 - y4) <= 40.0))",adaptive,-4.38752638670825E+017,18,16,-69.8683298050572,yes,[0.0 0.03125 1.0; 25.0 1.0 0.0; 75.0 1.0 0.5; 100.0 1.0 0.5],2 2 3 3 3 4,0.25,300
CC3,cars,"□_[0.0, 80.0] (□_[0.0, 20.0] ((y2 - y1) <= 20.0) || ◇_[0.0, 20.0] ((y5 - y4) <= 40.0))",adaptive,6.74658364328996E+018,1,0,-183.710325571125,yes,[0.0 1.0 0.0; 50.0 1.0 0.0; 100.0 1.0 0.0],2 2 3 3 3 4,0.25,300
CC3,cars,"□_[0.0, 80.0] (□_[0.0, 20.0] ((y2 - y1) <= 20.0) || ◇_[0.0, 20.0] ((y5 - y4) <= 40.0))",adaptive,-2.46313141042905E+017,6,6,-63.5437744847202,yes,[0.0 1.0 0.0; 50.0 1.0 1.0; 100.0 1.0 1.0],2 2 3 3 3 4,0.25,300
CC3,cars,"□_[0.0, 80.0] (□_[0.0, 20.0] ((y2 - y1) <= 20.0) || ◇_[0.0, 20.0] ((y5 - y4) <= 40.0))",adaptive,8.31503122849553E+018,3,3,-63.5437744847202,yes,[0.0 1.0 0.0; 50.0 0.75 1.0; 83.33333333333334 0.0 0.0; 100.0 0.0 0.0],2 2 3 3 3 4,0.25,300
CC3,cars,"□_[0.0, 80.0] (□_[0.0, 20.0] ((y2 - y1) <= 20.0) || ◇_[0.0, 20.0] ((y5 - y4) <= 40.0))",adaptive,-5.81927851369042E+018,10,12,-0.899807537528176,yes,[0.0 0.75 0.0; 33.333333333333336 0.0 0.0; 83.33333333333334 0.0 1.0; 100.0 0.0 1.0],2 2 3 3 3 4,0.25,300
CC3,cars,"□_[0.0, 80.0] (□_[0.0, 20.0] ((y2 - y1) <= 20.0) || ◇_[0.0, 20.0] ((y5 - y4) <= 40.0))",adaptive,-5.92116591653822E+018,28,30,-25.5964425626977,yes,[0.0 0.0 0.5; 50.0 1.0 0.0; 100.0 1.0 0.0],2 2 3 3 3 4,0.25,300
CC3,cars,"□_[0.0, 80.0] (□_[0.0, 20.0] ((y2 - y1) <= 20.0) || ◇_[0.0, 20.0] ((y5 - y4) <= 40.0))",adaptive,6.43814360267351E+018,2,2,-63.5437744847202,yes,[0.0 1.0 0.0; 50.0 0.0 0.5; 100.0 0.0 0.5],2 2 3 3 3 4,0.25,300
CC3,cars,"□_[0.0, 80.0] (□_[0.0, 20.0] ((y2 - y1) <= 20.0) || ◇_[0.0, 20.0] ((y5 - y4) <= 40.0))",adaptive,-6.05720528931459E+018,1,1,-63.5437744847202,yes,[0.0 1.0 0.0; 50.0 0.0 1.0; 100.0 0.0 1.0],2 2 3 3 3 4,0.25,300
CC3,cars,"□_[0.0, 80.0] (□_[0.0, 20.0] ((y2 - y1) <= 20.0) || ◇_[0.0, 20.0] ((y5 - y4) <= 40.0))",adaptive,3.03468650250854E+018,1,0,-63.54377448472,yes,[0.0 0.0 0.875; 33.333333333333336 1.0 0.0; 83.33333333333334 0.5 0.75; 100.0 0.5 0.75],2 2 3 3 3 4,0.25,300
CC3,cars,"□_[0.0, 80.0] (□_[0.0, 20.0] ((y2 - y1) <= 20.0) || ◇_[0.0, 20.0] ((y5 - y4) <= 40.0))",adaptive,-1.54322345022954E+017,6,5,-12.9473319220232,yes,[0.0 0.9375 0.0; 33.333333333333336 0.0 0.5; 83.33333333333334 1.0 1.0; 100.0 1.0 1.0],2 2 3 3 3 4,0.25,300
CC3,cars,"□_[0.0, 80.0] (□_[0.0, 20.0] ((y2 - y1) <= 20.0) || ◇_[0.0, 20.0] ((y5 - y4) <= 40.0))",adaptive,-8.11152555022369E+018,2,0,-133.815010655803,yes,[0.0 1.0 0.0; 50.0 0.5 0.0; 100.0 0.5 0.0],2 2 3 3 3 4,0.25,300
CC3,cars,"□_[0.0, 80.0] (□_[0.0, 20.0] ((y2 - y1) <= 20.0) || ◇_[0.0, 20.0] ((y5 - y4) <= 40.0))",adaptive,4.9267693161373E+017,16,13,-25.5964425626977,yes,[0.0 0.0 1.0; 50.0 1.0 0.0; 100.0 1.0 0.0],2 2 3 3 3 4,0.25,300
CC3,cars,"□_[0.0, 80.0] (□_[0.0, 20.0] ((y2 - y1) <= 20.0) || ◇_[0.0, 20.0] ((y5 - y4) <= 40.0))",adaptive,6.6709772029039E+018,4,2,-183.710325571125,yes,[0.0 1.0 0.0; 50.0 1.0 0.0; 100.0 1.0 0.0],2 2 3 3 3 4,0.25,300
CC3,cars,"□_[0.0, 80.0] (□_[0.0, 20.0] ((y2 - y1) <= 20.0) || ◇_[0.0, 20.0] ((y5 - y4) <= 40.0))",adaptive,3.0082102161192E+018,1,0,-183.710325571125,yes,[0.0 1.0 0.0; 50.0 1.0 0.0; 100.0 1.0 0.0],2 2 3 3 3 4,0.25,300
CC3,cars,"□_[0.0, 80.0] (□_[0.0, 20.0] ((y2 - y1) <= 20.0) || ◇_[0.0, 20.0] ((y5 - y4) <= 40.0))",adaptive,8.20321538076815E+016,7,6,-82.5174404457314,yes,[0.0 0.0 0.25; 33.333333333333336 1.0 0.0; 83.33333333333334 1.0 0.0; 100.0 1.0 0.0],2 2 3 3 3 4,0.25,300
CC3,cars,"□_[0.0, 80.0] (□_[0.0, 20.0] ((y2 - y1) <= 20.0) || ◇_[0.0, 20.0] ((y5 - y4) <= 40.0))",adaptive,4.21281405794016E+018,6,4,-25.5964425626977,yes,[0.0 0.0 0.0; 50.0 1.0 0.0; 100.0 1.0 0.0],2 2 3 3 3 4,0.25,300
CC3,cars,"□_[0.0, 80.0] (□_[0.0, 20.0] ((y2 - y1) <= 20.0) || ◇_[0.0, 20.0] ((y5 - y4) <= 40.0))",adaptive,1.08168886393274E+018,8,9,-0.899810969391268,yes,[0.0 0.0 0.25; 33.333333333333336 0.75 0.0; 66.66666666666667 1.0 0.0; 100.0 1.0 0.0],2 2 3 3 3 4,0.25,300
CC3,cars,"□_[0.0, 80.0] (□_[0.0, 20.0] ((y2 - y1) <= 20.0) || ◇_[0.0, 20.0] ((y5 - y4) <= 40.0))",adaptive,4.14652579917502E+018,3,0,-25.5964425626977,yes,[0.0 0.0 1.0; 50.0 1.0 0.0; 100.0 1.0 0.0],2 2 3 3 3 4,0.25,300
CC3,cars,"□_[0.0, 80.0] (□_[0.0, 20.0] ((y2 - y1) <= 20.0) || ◇_[0.0, 20.0] ((y5 - y4) <= 40.0))",adaptive,8.87873102348167E+018,6,5,-0.899807537528176,yes,[0.0 0.75 0.0; 33.333333333333336 0.75 0.0; 66.66666666666667 0.0 1.0; 100.0 0.0 1.0],2 2 3 3 3 4,0.25,300
CC3,cars,"□_[0.0, 80.0] (□_[0.0, 20.0] ((y2 - y1) <= 20.0) || ◇_[0.0, 20.0] ((y5 - y4) <= 40.0))",adaptive,-5.46410638876107E+018,8,5,-25.5964425626977,yes,[0.0 0.0 0.0; 50.0 1.0 0.0; 100.0 1.0 0.0],2 2 3 3 3 4,0.25,300
CC3,cars,"□_[0.0, 80.0] (□_[0.0, 20.0] ((y2 - y1) <= 20.0) || ◇_[0.0, 20.0] ((y5 - y4) <= 40.0))",adaptive,-5.86392834880147E+018,1,1,-63.5437744847202,yes,[0.0 1.0 0.0; 50.0 0.0 1.0; 100.0 0.0 1.0],2 2 3 3 3 4,0.25,300
CC4,cars,"□_[0.0, 65.0] ◇_[0.0, 30.0] □_[0.0, 5.0] (8.0 <= (y5 - y4))",adaptive,0,300,351,1.81486731469552,no,[0.0 0.5 1.0; 50.0 0.75 0.5; 83.33333333333334 1.0 0.25; 100.0 1.0 0.25],2 2 3 3 3 4,0.25,300
CC4,cars,"□_[0.0, 65.0] ◇_[0.0, 30.0] □_[0.0, 5.0] (8.0 <= (y5 - y4))",adaptive,-7.97163614889656E+018,300,324,1.95315555263824,no,[0.0 0.5 0.0; 50.0 1.0 0.25; 83.33333333333334 1.0 0.0; 100.0 1.0 0.0],2 2 3 3 3 4,0.25,300
CC4,cars,"□_[0.0, 65.0] ◇_[0.0, 30.0] □_[0.0, 5.0] (8.0 <= (y5 - y4))",adaptive,6.58200568595947E+017,300,333,1.93747343047869,no,[0.0 0.5 0.0; 50.0 0.625 1.0; 83.33333333333334 0.0 0.0; 100.0 0.0 0.0],2 2 3 3 3 4,0.25,300
CC4,cars,"□_[0.0, 65.0] ◇_[0.0, 30.0] □_[0.0, 5.0] (8.0 <= (y5 - y4))",adaptive,4.83382491676859E+018,300,329,1.77714506944035,no,[0.0 0.25 1.0; 33.333333333333336 0.25 1.0; 66.66666666666667 1.0 0.0; 100.0 1.0 0.0],2 2 3 3 3 4,0.25,300
CC4,cars,"□_[0.0, 65.0] ◇_[0.0, 30.0] □_[0.0, 5.0] (8.0 <= (y5 - y4))",adaptive,4.02787193805819E+018,300,310,1.99607891231379,no,[0.0 0.0 0.25; 33.333333333333336 1.0 0.84375; 58.333333333333336 0.5 0.0; 100.0 0.5 0.0],2 2 3 3 3 4,0.25,300
CC4,cars,"□_[0.0, 65.0] ◇_[0.0, 30.0] □_[0.0, 5.0] (8.0 <= (y5 - y4))",adaptive,9.11746736308306E+018,300,322,1.89622598952093,no,[0.0 1.0 1.0; 50.0 0.0 0.28125; 75.0 1.0 1.0; 100.0 1.0 1.0],2 2 3 3 3 4,0.25,300
CC4,cars,"□_[0.0, 65.0] ◇_[0.0, 30.0] □_[0.0, 5.0] (8.0 <= (y5 - y4))",adaptive,-3.37443964490789E+018,300,323,1.78318856975411,no,[0.0 0.5 1.0; 50.0 0.0 0.4375; 83.33333333333334 1.0 0.0; 100.0 1.0 0.0],2 2 3 3 3 4,0.25,300
CC4,cars,"□_[0.0, 65.0] ◇_[0.0, 30.0] □_[0.0, 5.0] (8.0 <= (y5 - y4))",adaptive,8.59715681942596E+018,300,328,1.92447101885688,no,[0.0 0.625 0.0; 33.333333333333336 0.75 1.0; 66.66666666666667 0.0 0.0; 100.0 0.0 0.0],2 2 3 3 3 4,0.25,300
CC4,cars,"□_[0.0, 65.0] ◇_[0.0, 30.0] □_[0.0, 5.0] (8.0 <= (y5 - y4))",adaptive,9.21094930135881E+018,300,324,1.93650339198848,no,[0.0 0.5 0.0; 50.0 0.34375 1.0; 75.0 1.0 1.0; 100.0 1.0 1.0],2 2 3 3 3 4,0.25,300
CC4,cars,"□_[0.0, 65.0] ◇_[0.0, 30.0] □_[0.0, 5.0] (8.0 <= (y5 - y4))",adaptive,1.56585272296487E+018,60,79,-0.253993168709918,yes,[0.0 0.25 0.875; 25.0 0.0 1.0; 75.0 1.0 0.5; 100.0 1.0 0.5],2 2 3 3 3 4,0.25,300
CC4,cars,"□_[0.0, 65.0] ◇_[0.0, 30.0] □_[0.0, 5.0] (8.0 <= (y5 - y4))",adaptive,-8.41297741254819E+018,300,351,2,no,[0.0 0.0 1.0; 50.0 0.625 1.0; 83.33333333333334 1.0 1.0; 100.0 1.0 1.0],2 2 3 3 3 4,0.25,300
CC4,cars,"□_[0.0, 65.0] ◇_[0.0, 30.0] □_[0.0, 5.0] (8.0 <= (y5 - y4))",adaptive,-7.10279701967771E+018,300,345,1.95616080585683,no,[0.0 0.5 0.0; 50.0 0.8125 0.0; 83.33333333333334 1.0 0.0; 100.0 1.0 0.0],2 2 3 3 3 4,0.25,300
CC4,cars,"□_[0.0, 65.0] ◇_[0.0, 30.0] □_[0.0, 5.0] (8.0 <= (y5 - y4))",adaptive,-2.90484800606791E+018,300,341,1.92076405680698,no,[0.0 1.0 1.0; 50.0 0.59375 0.0; 75.0 0.5 1.0; 100.0 0.5 1.0],2 2 3 3 3 4,0.25,300
CC4,cars,"□_[0.0, 65.0] ◇_[0.0, 30.0] □_[0.0, 5.0] (8.0 <= (y5 - y4))",adaptive,7.35895937278099E+018,300,331,1.89533004741438,no,[0.0 1.0 1.0; 50.0 0.0 0.90625; 75.0 1.0 1.0; 100.0 1.0 1.0],2 2 3 3 3 4,0.25,300
CC4,cars,"□_[0.0, 65.0] ◇_[0.0, 30.0] □_[0.0, 5.0] (8.0 <= (y5 - y4))",adaptive,2.46273871852467E+017,300,345,1.91411802151469,no,[0.0 1.0 1.0; 50.0 0.5 0.125; 83.33333333333334 1.0 0.5; 100.0 1.0 0.5],2 2 3 3 3 4,0.25,300
CC4,cars,"□_[0.0, 65.0] ◇_[0.0, 30.0] □_[0.0, 5.0] (8.0 <= (y5 - y4))",adaptive,6.76672664927095E+018,300,342,1.95108996301383,no,[0.0 1.0 0.0; 50.0 0.0 0.125; 83.33333333333334 0.5 1.0; 100.0 0.5 1.0],2 2 3 3 3 4,0.25,300
CC4,cars,"□_[0.0, 65.0] ◇_[0.0, 30.0] □_[0.0, 5.0] (8.0 <= (y5 - y4))",adaptive,-6.4700128694639E+017,300,343,1.89636198007602,no,[0.0 1.0 1.0; 50.0 0.125 0.75; 75.0 0.0 1.0; 100.0 0.0 1.0],2 2 3 3 3 4,0.25,300
CC4,cars,"□_[0.0, 65.0] ◇_[0.0, 30.0] □_[0.0, 5.0] (8.0 <= (y5 - y4))",adaptive,-1.98632834457942E+018,300,316,1.89541576691871,no,[0.0 1.0 1.0; 50.0 0.0 0.6875; 83.33333333333334 0.0 0.0; 100.0 0.0 0.0],2 2 3 3 3 4,0.25,300
CC4,cars,"□_[0.0, 65.0] ◇_[0.0, 30.0] □_[0.0, 5.0] (8.0 <= (y5 - y4))",adaptive,6.59381501911701E+018,300,324,1.90261364210526,no,[0.0 1.0 1.0; 50.0 0.5 0.5625; 75.0 0.0625 0.0; 100.0 0.0625 0.0],2 2 3 3 3 4,0.25,300
CC4,cars,"□_[0.0, 65.0] ◇_[0.0, 30.0] □_[0.0, 5.0] (8.0 <= (y5 - y4))",adaptive,5.4418584760823E+017,300,324,1.9462463101936,no,[0.0 1.0 0.0; 50.0 0.0 1.0; 100.0 0.0 1.0],2 2 3 3 3 4,0.25,300
CC4,cars,"□_[0.0, 65.0] ◇_[0.0, 30.0] □_[0.0, 5.0] (8.0 <= (y5 - y4))",adaptive,-1.70770277645221E+018,300,332,1.99919842647705,no,[0.0 0.5 0.0; 50.0 0.59375 0.0; 75.0 0.0 1.0; 100.0 0.0 1.0],2 2 3 3 3 4,0.25,300
CC4,cars,"□_[0.0, 65.0] ◇_[0.0, 30.0] □_[0.0, 5.0] (8.0 <= (y5 - y4))",adaptive,8.69962116377428E+018,300,332,2,no,[0.0 0.0 0.0; 50.0 0.5 0.375; 83.33333333333334 1.0 0.5; 100.0 1.0 0.5],2 2 3 3 3 4,0.25,300
CC4,cars,"□_[0.0, 65.0] ◇_[0.0, 30.0] □_[0.0, 5.0] (8.0 <= (y5 - y4))",adaptive,7.48347630366149E+017,300,332,1.99360273853904,no,[0.0 0.5 0.0; 50.0 0.3125 0.0; 83.33333333333334 0.0 0.0; 100.0 0.0 0.0],2 2 3 3 3 4,0.25,300
CC4,cars,"□_[0.0, 65.0] ◇_[0.0, 30.0] □_[0.0, 5.0] (8.0 <= (y5 - y4))",adaptive,6.63258505759463E+018,300,322,1.91024273707987,no,[0.0 1.0 1.0; 50.0 0.75 0.375; 75.0 0.0 0.25; 100.0 0.0 0.25],2 2 3 3 3 4,0.25,300
CC4,cars,"□_[0.0, 65.0] ◇_[0.0, 30.0] □_[0.0, 5.0] (8.0 <= (y5 - y4))",adaptive,-2.62560838718719E+018,300,330,1.78318856975411,no,[0.0 0.5 1.0; 50.0 0.0 0.1875; 83.33333333333334 1.0 0.625; 100.0 1.0 0.625],2 2 3 3 3 4,0.25,300
CC4,cars,"□_[0.0, 65.0] ◇_[0.0, 30.0] □_[0.0, 5.0] (8.0 <= (y5 - y4))",adaptive,8.83040411171568E+018,44,39,-0.536166661671771,yes,[0.0 0.28125 1.0; 25.0 0.0 1.0; 75.0 0.0 1.0; 100.0 0.0 1.0],2 2 3 3 3 4,0.25,300
CC4,cars,"□_[0.0, 65.0] ◇_[0.0, 30.0] □_[0.0, 5.0] (8.0 <= (y5 - y4))",adaptive,7.13324138984742E+018,300,311,1.89535613307783,no,[0.0 1.0 1.0; 50.0 0.0 0.8125; 83.33333333333334 0.0 0.75; 100.0 0.0 0.75],2 2 3 3 3 4,0.25,300
CC4,cars,"□_[0.0, 65.0] ◇_[0.0, 30.0] □_[0.0, 5.0] (8.0 <= (y5 - y4))",adaptive,-7.41913518137968E+018,300,307,1.92964145680446,no,[0.0 0.75 0.0; 33.333333333333336 0.25 0.5; 66.66666666666667 1.0 1.0; 100.0 1.0 1.0],2 2 3 3 3 4,0.25,300
CC4,cars,"□_[0.0, 65.0] ◇_[0.0, 30.0] □_[0.0, 5.0] (8.0 <= (y5 - y4))",adaptive,-7.31445419528728E+018,300,331,1.90613625340903,no,[0.0 1.0 1.0; 50.0 0.5 0.375; 83.33333333333334 1.0 0.5; 100.0 1.0 0.5],2 2 3 3 3 4,0.25,300
CC4,cars,"□_[0.0, 65.0] ◇_[0.0, 30.0] □_[0.0, 5.0] (8.0 <= (y5 - y4))",adaptive,2.82261997349545E+018,300,321,1.91191439313146,no,[0.0 1.0 1.0; 50.0 0.625 0.25; 75.0 0.5 0.0; 100.0 0.5 0.0],2 2 3 3 3 4,0.25,300
CC4,cars,"□_[0.0, 65.0] ◇_[0.0, 30.0] □_[0.0, 5.0] (8.0 <= (y5 - y4))",adaptive,-3.91439400241338E+018,300,345,1.92101432278853,no,[0.0 0.0 0.375; 33.333333333333336 1.0 1.0; 83.33333333333334 1.0 0.0; 100.0 1.0 0.0],2 2 3 3 3 4,0.25,300
CC4,cars,"□_[0.0, 65.0] ◇_[0.0, 30.0] □_[0.0, 5.0] (8.0 <= (y5 - y4))",adaptive,-3.23415487596993E+017,300,323,1.91656236978054,no,[0.0 1.0 1.0; 50.0 0.40625 0.0; 75.0 0.5 0.0; 100.0 0.5 0.0],2 2 3 3 3 4,0.25,300
CC4,cars,"□_[0.0, 65.0] ◇_[0.0, 30.0] □_[0.0, 5.0] (8.0 <= (y5 - y4))",adaptive,-5.47822302218555E+017,300,319,2,no,[0.0 0.0 0.75; 33.333333333333336 0.0 0.125; 66.66666666666667 0.0 1.0; 100.0 0.0 1.0],2 2 3 3 3 4,0.25,300
CC4,cars,"□_[0.0, 65.0] ◇_[0.0, 30.0] □_[0.0, 5.0] (8.0 <= (y5 - y4))",adaptive,-1.51900380502032E+018,300,343,1.87318381704342,no,[0.0 0.0 0.25; 33.333333333333336 0.5 1.0; 83.33333333333334 0.5 1.0; 100.0 0.5 1.0],2 2 3 3 3 4,0.25,300
CC4,cars,"□_[0.0, 65.0] ◇_[0.0, 30.0] □_[0.0, 5.0] (8.0 <= (y5 - y4))",adaptive,1.76639802325666E+018,300,337,2,no,[0.0 0.0 0.75; 33.333333333333336 0.0 0.0; 83.33333333333334 1.0 1.0; 100.0 1.0 1.0],2 2 3 3 3 4,0.25,300
CC4,cars,"□_[0.0, 65.0] ◇_[0.0, 30.0] □_[0.0, 5.0] (8.0 <= (y5 - y4))",adaptive,6.49067561887538E+018,300,330,1.89599225838811,no,[0.0 1.0 1.0; 50.0 0.0625 1.0; 83.33333333333334 1.0 0.0; 100.0 1.0 0.0],2 2 3 3 3 4,0.25,300
CC4,cars,"□_[0.0, 65.0] ◇_[0.0, 30.0] □_[0.0, 5.0] (8.0 <= (y5 - y4))",adaptive,-5.18473365321097E+018,300,340,1.90633747053796,no,[0.0 1.0 1.0; 50.0 0.375 0.25; 75.0 1.0 1.0; 100.0 1.0 1.0],2 2 3 3 3 4,0.25,300
CC4,cars,"□_[0.0, 65.0] ◇_[0.0, 30.0] □_[0.0, 5.0] (8.0 <= (y5 - y4))",adaptive,-5.46197676516403E+018,300,310,2,no,[0.0 0.0 1.0; 50.0 0.25 0.25; 83.33333333333334 0.5 1.0; 100.0 0.5 1.0],2 2 3 3 3 4,0.25,300
CC4,cars,"□_[0.0, 65.0] ◇_[0.0, 30.0] □_[0.0, 5.0] (8.0 <= (y5 - y4))",adaptive,-4.44723491639372E+017,300,330,1.93558789014924,no,[0.0 0.5 0.0; 50.0 0.0 0.75; 83.33333333333334 1.0 0.0; 100.0 1.0 0.0],2 2 3 3 3 4,0.25,300
CC4,cars,"□_[0.0, 65.0] ◇_[0.0, 30.0] □_[0.0, 5.0] (8.0 <= (y5 - y4))",adaptive,5.13089710481035E+018,300,334,1.9381117955237,no,[0.0 0.5 0.0; 50.0 0.8125 1.0; 83.33333333333334 0.0 0.75; 100.0 0.0 0.75],2 2 3 3 3 4,0.25,300
CC4,cars,"□_[0.0, 65.0] ◇_[0.0, 30.0] □_[0.0, 5.0] (8.0 <= (y5 - y4))",adaptive,7.99802002197936E+018,300,310,1.90757084699316,no,[0.0 1.0 1.0; 50.0 0.5 0.3125; 75.0 0.0 0.0; 100.0 0.0 0.0],2 2 3 3 3 4,0.25,300
CC4,cars,"□_[0.0, 65.0] ◇_[0.0, 30.0] □_[0.0, 5.0] (8.0 <= (y5 - y4))",adaptive,-3.6975169852963E+018,300,321,1.08976555299806,no,[0.0 0.25 1.0; 33.333333333333336 0.0 1.0; 83.33333333333334 0.0 0.5; 100.0 0.0 0.5],2 2 3 3 3 4,0.25,300
CC4,cars,"□_[0.0, 65.0] ◇_[0.0, 30.0] □_[0.0, 5.0] (8.0 <= (y5 - y4))",adaptive,-1.17594306830844E+018,300,332,2,no,[0.0 0.0 0.75; 33.333333333333336 0.0 0.0; 83.33333333333334 0.0 0.375; 100.0 0.0 0.375],2 2 3 3 3 4,0.25,300
CC4,cars,"□_[0.0, 65.0] ◇_[0.0, 30.0] □_[0.0, 5.0] (8.0 <= (y5 - y4))",adaptive,5.26912013242557E+018,300,324,1.91191439313146,no,[0.0 1.0 1.0; 50.0 0.625 0.25; 75.0 1.0 1.0; 100.0 1.0 1.0],2 2 3 3 3 4,0.25,300
CC4,cars,"□_[0.0, 65.0] ◇_[0.0, 30.0] □_[0.0, 5.0] (8.0 <= (y5 - y4))",adaptive,4.87035690619486E+018,300,331,1.89980289949039,no,[0.0 1.0 1.0; 50.0 0.0 0.09375; 75.0 1.0 1.0; 100.0 1.0 1.0],2 2 3 3 3 4,0.25,300
CC4,cars,"□_[0.0, 65.0] ◇_[0.0, 30.0] □_[0.0, 5.0] (8.0 <= (y5 - y4))",adaptive,-3.93327588366472E+018,300,347,1.9020737663931,no,[0.0 1.0 1.0; 50.0 0.84375 1.0; 75.0 1.0 1.0; 100.0 1.0 1.0],2 2 3 3 3 4,0.25,300
CC4,cars,"□_[0.0, 65.0] ◇_[0.0, 30.0] □_[0.0, 5.0] (8.0 <= (y5 - y4))",adaptive,-7.29818284788325E+017,300,338,2,no,[0.0 0.0 0.75; 33.333333333333336 0.0 1.0; 83.33333333333334 0.75 1.0; 100.0 0.75 1.0],2 2 3 3 3 4,0.25,300
CC4,cars,"□_[0.0, 65.0] ◇_[0.0, 30.0] □_[0.0, 5.0] (8.0 <= (y5 - y4))",adaptive,5.31895747765011E+018,300,333,1.9019871332102,no,[0.0 1.0 1.0; 50.0 0.625 0.75; 75.0 0.1875 1.0; 100.0 0.1875 1.0],2 2 3 3 3 4,0.25,300
CC4,cars,"□_[0.0, 65.0] ◇_[0.0, 30.0] □_[0.0, 5.0] (8.0 <= (y5 - y4))",adaptive,-5.82614094857153E+018,300,331,1.89531743467305,no,[0.0 1.0 1.0; 50.0 0.0 0.96875; 75.0 0.0 1.0; 100.0 0.0 1.0],2 2 3 3 3 4,0.25,300
CC4,cars,"□_[0.0, 65.0] ◇_[0.0, 30.0] □_[0.0, 5.0] (8.0 <= (y5 - y4))",adaptive,-3.3147084690369E+018,300,325,1.89802196833344,no,[0.0 1.0 1.0; 50.0 0.0 0.15625; 75.0 1.0 0.0; 100.0 1.0 0.0],2 2 3 3 3 4,0.25,300
CC5,cars,"□_[0.0, 72.0] ◇_[0.0, 8.0] (□_[0.0, 5.0] (9.0 <= (y2 - y1)) ==> □_[5.0, 20.0] (9.0 <= (y5 - y4)))",adaptive,0,8,64,-0.073331979833785,yes,[0.0 0.25 1.0; 33.333333333333336 0.0 0.75; 66.66666666666667 0.0 0.0; 100.0 0.0 0.0],2 2 3 3 3 4,0.25,300
CC5,cars,"□_[0.0, 72.0] ◇_[0.0, 8.0] (□_[0.0, 5.0] (9.0 <= (y2 - y1)) ==> □_[5.0, 20.0] (9.0 <= (y5 - y4)))",adaptive,-6.997049497126E+017,24,23,-0.16351938024853,yes,[0.0 0.25 0.75; 33.333333333333336 0.0 0.5; 83.33333333333334 0.0 1.0; 100.0 0.0 1.0],2 2 3 3 3 4,0.25,300
CC5,cars,"□_[0.0, 72.0] ◇_[0.0, 8.0] (□_[0.0, 5.0] (9.0 <= (y2 - y1)) ==> □_[5.0, 20.0] (9.0 <= (y5 - y4)))",adaptive,7.83228530957177E+018,45,38,-0.041299050622659,yes,[0.0 0.125 0.5; 33.333333333333336 0.0 0.5; 83.33333333333334 1.0 1.0; 100.0 1.0 1.0],2 2 3 3 3 4,0.25,300
CC5,cars,"□_[0.0, 72.0] ◇_[0.0, 8.0] (□_[0.0, 5.0] (9.0 <= (y2 - y1)) ==> □_[5.0, 20.0] (9.0 <= (y5 - y4)))",adaptive,-7.95613600812926E+018,86,78,-1,yes,[0.0 0.0 1.0; 50.0 0.3125 1.0; 83.33333333333334 0.875 0.0; 100.0 0.875 0.0],2 2 3 3 3 4,0.25,300
CC5,cars,"□_[0.0, 72.0] ◇_[0.0, 8.0] (□_[0.0, 5.0] (9.0 <= (y2 - y1)) ==> □_[5.0, 20.0] (9.0 <= (y5 - y4)))",adaptive,4.75774940969266E+018,279,265,-0.110210532943025,yes,[0.0 0.0 1.0; 50.0 0.25 0.75; 83.33333333333334 0.0 0.5625; 100.0 0.0 0.5625],2 2 3 3 3 4,0.25,300
CC5,cars,"□_[0.0, 72.0] ◇_[0.0, 8.0] (□_[0.0, 5.0] (9.0 <= (y2 - y1)) ==> □_[5.0, 20.0] (9.0 <= (y5 - y4)))",adaptive,2.54236973734859E+017,252,227,-0.11504792647542,yes,[0.0 0.0 1.0; 50.0 0.25 0.75; 83.33333333333334 0.0 1.0; 100.0 0.0 1.0],2 2 3 3 3 4,0.25,300
CC5,cars,"□_[0.0, 72.0] ◇_[0.0, 8.0] (□_[0.0, 5.0] (9.0 <= (y2 - y1)) ==> □_[5.0, 20.0] (9.0 <= (y5 - y4)))",adaptive,7.49259494433963E+018,47,43,-0.067052512995524,yes,[0.0 0.25 1.0; 33.333333333333336 0.0 1.0; 83.33333333333334 0.46875 0.0; 100.0 0.46875 0.0],2 2 3 3 3 4,0.25,300
CC5,cars,"□_[0.0, 72.0] ◇_[0.0, 8.0] (□_[0.0, 5.0] (9.0 <= (y2 - y1)) ==> □_[5.0, 20.0] (9.0 <= (y5 - y4)))",adaptive,-1.5714561727425E+018,27,25,-0.152256375352117,yes,[0.0 0.3125 1.0; 33.333333333333336 0.0 1.0; 83.33333333333334 1.0 1.0; 100.0 1.0 1.0],2 2 3 3 3 4,0.25,300
CC5,cars,"□_[0.0, 72.0] ◇_[0.0, 8.0] (□_[0.0, 5.0] (9.0 <= (y2 - y1)) ==> □_[5.0, 20.0] (9.0 <= (y5 - y4)))",adaptive,-1.41651077265059E+017,109,106,-0.067052512966889,yes,[0.0 0.25 1.0; 33.333333333333336 0.0 1.0; 83.33333333333334 0.5 0.0; 100.0 0.5 0.0],2 2 3 3 3 4,0.25,300
CC5,cars,"□_[0.0, 72.0] ◇_[0.0, 8.0] (□_[0.0, 5.0] (9.0 <= (y2 - y1)) ==> □_[5.0, 20.0] (9.0 <= (y5 - y4)))",adaptive,8.24813079311811E+018,294,285,-0.963733280995001,yes,[0.0 0.0 1.0; 50.0 0.25 0.75; 83.33333333333334 1.0 0.0; 100.0 1.0 0.0],2 2 3 3 3 4,0.25,300
CC5,cars,"□_[0.0, 72.0] ◇_[0.0, 8.0] (□_[0.0, 5.0] (9.0 <= (y2 - y1)) ==> □_[5.0, 20.0] (9.0 <= (y5 - y4)))",adaptive,5.43831424146642E+018,3,3,-0.067052512968381,yes,[0.0 0.25 1.0; 33.333333333333336 0.0 1.0; 83.33333333333334 1.0 1.0; 100.0 1.0 1.0],2 2 3 3 3 4,0.25,300
CC5,cars,"□_[0.0, 72.0] ◇_[0.0, 8.0] (□_[0.0, 5.0] (9.0 <= (y2 - y1)) ==> □_[5.0, 20.0] (9.0 <= (y5 - y4)))",adaptive,3.20748313361109E+018,162,163,-0.012513093263934,yes,[0.0 0.0 0.0; 50.0 0.125 0.5; 83.33333333333334 0.0 0.125; 100.0 0.0 0.125],2 2 3 3 3 4,0.25,300
CC5,cars,"□_[0.0, 72.0] ◇_[0.0, 8.0] (□_[0.0, 5.0] (9.0 <= (y2 - y1)) ==> □_[5.0, 20.0] (9.0 <= (y5 - y4)))",adaptive,6.96433730825834E+018,157,150,-0.06705251298947,yes,[0.0 0.25 1.0; 33.333333333333336 0.0 1.0; 83.33333333333334 0.25 0.0; 100.0 0.25 0.0],2 2 3 3 3 4,0.25,300
CC5,cars,"□_[0.0, 72.0] ◇_[0.0, 8.0] (□_[0.0, 5.0] (9.0 <= (y2 - y1)) ==> □_[5.0, 20.0] (9.0 <= (y5 - y4)))",adaptive,-1.39726578082954E+018,172,178,-0.06705251298947,yes,[0.0 0.25 1.0; 33.333333333333336 0.0 1.0; 83.33333333333334 0.25 0.0; 100.0 0.25 0.0],2 2 3 3 3 4,0.25,300
CC5,cars,"□_[0.0, 72.0] ◇_[0.0, 8.0] (□_[0.0, 5.0] (9.0 <= (y2 - y1)) ==> □_[5.0, 20.0] (9.0 <= (y5 - y4)))",adaptive,-2.93165360466831E+018,45,37,-0.149294987937431,yes,[0.0 0.25 1.0; 33.333333333333336 0.0 1.0; 83.33333333333334 0.0 1.0; 100.0 0.0 1.0],2 2 3 3 3 4,0.25,300
CC5,cars,"□_[0.0, 72.0] ◇_[0.0, 8.0] (□_[0.0, 5.0] (9.0 <= (y2 - y1)) ==> □_[5.0, 20.0] (9.0 <= (y5 - y4)))",adaptive,5.09823641352707E+018,117,110,-0.11504792647542,yes,[0.0 0.0 0.0; 50.0 0.25 0.75; 83.33333333333334 0.0 1.0; 100.0 0.0 1.0],2 2 3 3 3 4,0.25,300
CC5,cars,"□_[0.0, 72.0] ◇_[0.0, 8.0] (□_[0.0, 5.0] (9.0 <= (y2 - y1)) ==> □_[5.0, 20.0] (9.0 <= (y5 - y4)))",adaptive,-8.61397971451551E+018,22,15,-1.12233876932467,yes,[0.0 0.0 1.0; 50.0 0.25 1.0; 83.33333333333334 0.0 1.0; 100.0 0.0 1.0],2 2 3 3 3 4,0.25,300
CC5,cars,"□_[0.0, 72.0] ◇_[0.0, 8.0] (□_[0.0, 5.0] (9.0 <= (y2 - y1)) ==> □_[5.0, 20.0] (9.0 <= (y5 - y4)))",adaptive,-6.3579649191439E+018,77,50,-0.11504792647542,yes,[0.0 0.0 0.0; 50.0 0.25 0.75; 83.33333333333334 0.0 1.0; 100.0 0.0 1.0],2 2 3 3 3 4,0.25,300
CC5,cars,"□_[0.0, 72.0] ◇_[0.0, 8.0] (□_[0.0, 5.0] (9.0 <= (y2 - y1)) ==> □_[5.0, 20.0] (9.0 <= (y5 - y4)))",adaptive,4.03053895412423E+017,162,165,-0.149294987937431,yes,[0.0 0.25 1.0; 33.333333333333336 0.0 1.0; 83.33333333333334 0.0 0.0; 100.0 0.0 0.0],2 2 3 3 3 4,0.25,300
CC5,cars,"□_[0.0, 72.0] ◇_[0.0, 8.0] (□_[0.0, 5.0] (9.0 <= (y2 - y1)) ==> □_[5.0, 20.0] (9.0 <= (y5 - y4)))",adaptive,6.00852746894514E+018,300,275,0.894788174332227,no,[0.0 0.125 0.0; 33.333333333333336 0.5 0.5; 66.66666666666667 1.0 0.0; 100.0 1.0 0.0],2 2 3 3 3 4,0.25,300
CC5,cars,"□_[0.0, 72.0] ◇_[0.0, 8.0] (□_[0.0, 5.0] (9.0 <= (y2 - y1)) ==> □_[5.0, 20.0] (9.0 <= (y5 - y4)))",adaptive,-8.00094280830141E+018,23,19,-0.149294987937431,yes,[0.0 0.25 1.0; 33.333333333333336 0.0 1.0; 83.33333333333334 0.0 0.5; 100.0 0.0 0.5],2 2 3 3 3 4,0.25,300
CC5,cars,"□_[0.0, 72.0] ◇_[0.0, 8.0] (□_[0.0, 5.0] (9.0 <= (y2 - y1)) ==> □_[5.0, 20.0] (9.0 <= (y5 - y4)))",adaptive,8.57221878700751E+018,8,4,-0.16351938024853,yes,[0.0 0.25 0.75; 33.333333333333336 0.0 0.5; 83.33333333333334 1.0 0.5; 100.0 1.0 0.5],2 2 3 3 3 4,0.25,300
CC5,cars,"□_[0.0, 72.0] ◇_[0.0, 8.0] (□_[0.0, 5.0] (9.0 <= (y2 - y1)) ==> □_[5.0, 20.0] (9.0 <= (y5 - y4)))",adaptive,1.6645988364171E+018,4,4,-0.047590829291075,yes,[0.0 0.34375 1.0; 25.0 0.25 1.0; 58.333333333333336 0.1875 0.0; 91.66666666666667 0.0 1.0; 100.0 0.0 1.0],2 2 3 3 3 4,0.25,300
CC5,cars,"□_[0.0, 72.0] ◇_[0.0, 8.0] (□_[0.0, 5.0] (9.0 <= (y2 - y1)) ==> □_[5.0, 20.0] (9.0 <= (y5 - y4)))",adaptive,-7.00809085567148E+018,118,113,-0.149294987937431,yes,[0.0 0.25 1.0; 33.333333333333336 0.0 1.0; 83.33333333333334 0.0 0.5; 100.0 0.0 0.5],2 2 3 3 3 4,0.25,300
CC5,cars,"□_[0.0, 72.0] ◇_[0.0, 8.0] (□_[0.0, 5.0] (9.0 <= (y2 - y1)) ==> □_[5.0, 20.0] (9.0 <= (y5 - y4)))",adaptive,5.95859402567266E+018,95,89,-0.906171103695424,yes,[0.0 0.0 1.0; 50.0 0.25 1.0; 83.33333333333334 0.0 0.5; 100.0 0.0 0.5],2 2 3 3 3 4,0.25,300
CC5,cars,"□_[0.0, 72.0] ◇_[0.0, 8.0] (□_[0.0, 5.0] (9.0 <= (y2 - y1)) ==> □_[5.0, 20.0] (9.0 <= (y5 - y4)))",adaptive,1.11117006761865E+016,183,196,-1.12233876932467,yes,[0.0 0.0 0.5; 50.0 0.25 1.0; 83.33333333333334 0.0 1.0; 100.0 0.0 1.0],2 2 3 3 3 4,0.25,300
CC5,cars,"□_[0.0, 72.0] ◇_[0.0, 8.0] (□_[0.0, 5.0] (9.0 <= (y2 - y1)) ==> □_[5.0, 20.0] (9.0 <= (y5 - y4)))",adaptive,-5.53122346798253E+018,2,2,-0.067052512961663,yes,[0.0 0.25 1.0; 33.333333333333336 0.0 1.0; 83.33333333333334 0.5 1.0; 100.0 0.5 1.0],2 2 3 3 3 4,0.25,300
CC5,cars,"□_[0.0, 72.0] ◇_[0.0, 8.0] (□_[0.0, 5.0] (9.0 <= (y2 - y1)) ==> □_[5.0, 20.0] (9.0 <= (y5 - y4)))",adaptive,8.59098765341551E+018,300,295,0.889908085651024,no,[0.0 1.0 1.0; 50.0 1.0 0.15625; 75.0 0.0 1.0; 100.0 0.0 1.0],2 2 3 3 3 4,0.25,300
CC5,cars,"□_[0.0, 72.0] ◇_[0.0, 8.0] (□_[0.0, 5.0] (9.0 <= (y2 - y1)) ==> □_[5.0, 20.0] (9.0 <= (y5 - y4)))",adaptive,-1.86470020324191E+018,104,103,-0.129604216808591,yes,[0.0 0.0 0.0; 50.0 0.375 1.0; 83.33333333333334 0.0 0.5; 100.0 0.0 0.5],2 2 3 3 3 4,0.25,300
CC5,cars,"□_[0.0, 72.0] ◇_[0.0, 8.0] (□_[0.0, 5.0] (9.0 <= (y2 - y1)) ==> □_[5.0, 20.0] (9.0 <= (y5 - y4)))",adaptive,-2.78681132735879E+018,1,0,-0.025644116286777,yes,[0.0 0.28125 1.0; 25.0 0.0 0.0; 75.0 1.0 1.0; 100.0 1.0 1.0],2 2 3 3 3 4,0.25,300
CC5,cars,"□_[0.0, 72.0] ◇_[0.0, 8.0] (□_[0.0, 5.0] (9.0 <= (y2 - y1)) ==> □_[5.0, 20.0] (9.0 <= (y5 - y4)))",adaptive,1.81290531215457E+018,125,123,-0.537409895288807,yes,[0.0 0.0 0.0; 50.0 0.25 1.0; 83.33333333333334 0.0 0.25; 100.0 0.0 0.25],2 2 3 3 3 4,0.25,300
CC5,cars,"□_[0.0, 72.0] ◇_[0.0, 8.0] (□_[0.0, 5.0] (9.0 <= (y2 - y1)) ==> □_[5.0, 20.0] (9.0 <= (y5 - y4)))",adaptive,-6.83228887949531E+018,181,167,-0.067052512966889,yes,[0.0 0.25 1.0; 33.333333333333336 0.0 1.0; 83.33333333333334 0.5 0.0; 100.0 0.5 0.0],2 2 3 3 3 4,0.25,300
CC5,cars,"□_[0.0, 72.0] ◇_[0.0, 8.0] (□_[0.0, 5.0] (9.0 <= (y2 - y1)) ==> □_[5.0, 20.0] (9.0 <= (y5 - y4)))",adaptive,6.75771766236871E+018,79,68,-0.129903983601214,yes,[0.0 0.375 1.0; 33.333333333333336 0.0 1.0; 83.33333333333334 1.0 0.0; 100.0 1.0 0.0],2 2 3 3 3 4,0.25,300
CC5,cars,"□_[0.0, 72.0] ◇_[0.0, 8.0] (□_[0.0, 5.0] (9.0 <= (y2 - y1)) ==> □_[5.0, 20.0] (9.0 <= (y5 - y4)))",adaptive,3.25477904588839E+018,43,34,-0.537409895288807,yes,[0.0 0.0 1.0; 50.0 0.25 1.0; 83.33333333333334 0.0 0.25; 100.0 0.0 0.25],2 2 3 3 3 4,0.25,300
CC5,cars,"□_[0.0, 72.0] ◇_[0.0, 8.0] (□_[0.0, 5.0] (9.0 <= (y2 - y1)) ==> □_[5.0, 20.0] (9.0 <= (y5 - y4)))",adaptive,-7.00013859375599E+018,61,62,-0.120510937969534,yes,[0.0 0.375 1.0; 33.333333333333336 0.0 0.25; 66.66666666666667 0.0 0.0; 100.0 0.0 0.0],2 2 3 3 3 4,0.25,300
CC5,cars,"□_[0.0, 72.0] ◇_[0.0, 8.0] (□_[0.0, 5.0] (9.0 <= (y2 - y1)) ==> □_[5.0, 20.0] (9.0 <= (y5 - y4)))",adaptive,-6.49257938734661E+017,300,304,0.919226483517477,no,[0.0 0.75 0.5; 33.333333333333336 1.0 0.25; 66.66666666666667 1.0 0.25; 100.0 1.0 0.25],2 2 3 3 3 4,0.25,300
CC5,cars,"□_[0.0, 72.0] ◇_[0.0, 8.0] (□_[0.0, 5.0] (9.0 <= (y2 - y1)) ==> □_[5.0, 20.0] (9.0 <= (y5 - y4)))",adaptive,-7.43198664669609E+018,37,35,-0.149294987937431,yes,[0.0 0.25 1.0; 33.333333333333336 0.0 1.0; 83.33333333333334 0.0 1.0; 100.0 0.0 1.0],2 2 3 3 3 4,0.25,300
CC5,cars,"□_[0.0, 72.0] ◇_[0.0, 8.0] (□_[0.0, 5.0] (9.0 <= (y2 - y1)) ==> □_[5.0, 20.0] (9.0 <= (y5 - y4)))",adaptive,-5.60579531148655E+018,9,8,-0.334536883205832,yes,[0.0 0.3125 1.0; 33.333333333333336 0.0 0.5; 83.33333333333334 0.5 0.0; 100.0 0.5 0.0],2 2 3 3 3 4,0.25,300
CC5,cars,"□_[0.0, 72.0] ◇_[0.0, 8.0] (□_[0.0, 5.0] (9.0 <= (y2 - y1)) ==> □_[5.0, 20.0] (9.0 <= (y5 - y4)))",adaptive,9.73555662080054E+017,1,0,-1.12233876932467,yes,[0.0 0.0 0.0; 50.0 0.25 1.0; 83.33333333333334 0.0 1.0; 100.0 0.0 1.0],2 2 3 3 3 4,0.25,300
CC5,cars,"□_[0.0, 72.0] ◇_[0.0, 8.0] (□_[0.0, 5.0] (9.0 <= (y2 - y1)) ==> □_[5.0, 20.0] (9.0 <= (y5 - y4)))",adaptive,-4.59005554413566E+017,2,1,-0.537409895288807,yes,[0.0 0.0 1.0; 50.0 0.25 1.0; 83.33333333333334 0.0 0.25; 100.0 0.0 0.25],2 2 3 3 3 4,0.25,300
CC5,cars,"□_[0.0, 72.0] ◇_[0.0, 8.0] (□_[0.0, 5.0] (9.0 <= (y2 - y1)) ==> □_[5.0, 20.0] (9.0 <= (y5 - y4)))",adaptive,7.65714760925024E+018,183,166,-0.11504792647542,yes,[0.0 0.0 1.0; 50.0 0.25 0.75; 83.33333333333334 0.0 1.0; 100.0 0.0 1.0],2 2 3 3 3 4,0.25,300
CC5,cars,"□_[0.0, 72.0] ◇_[0.0, 8.0] (□_[0.0, 5.0] (9.0 <= (y2 - y1)) ==> □_[5.0, 20.0] (9.0 <= (y5 - y4)))",adaptive,8.72345613532032E+017,119,112,-0.129604216808591,yes,[0.0 0.0 0.0; 50.0 0.375 1.0; 83.33333333333334 0.0 0.5; 100.0 0.0 0.5],2 2 3 3 3 4,0.25,300
CC5,cars,"□_[0.0, 72.0] ◇_[0.0, 8.0] (□_[0.0, 5.0] (9.0 <= (y2 - y1)) ==> □_[5.0, 20.0] (9.0 <= (y5 - y4)))",adaptive,1.72634826770656E+017,66,58,-1.12233876932467,yes,[0.0 0.0 0.0; 50.0 0.25 1.0; 83.33333333333334 0.0 1.0; 100.0 0.0 1.0],2 2 3 3 3 4,0.25,300
CC5,cars,"□_[0.0, 72.0] ◇_[0.0, 8.0] (□_[0.0, 5.0] (9.0 <= (y2 - y1)) ==> □_[5.0, 20.0] (9.0 <= (y5 - y4)))",adaptive,2.14003842139021E+018,300,342,0.773742152815693,no,[0.0 0.5 1.0; 50.0 0.3125 0.0; 83.33333333333334 0.0 1.0; 100.0 0.0 1.0],2 2 3 3 3 4,0.25,300
CC5,cars,"□_[0.0, 72.0] ◇_[0.0, 8.0] (□_[0.0, 5.0] (9.0 <= (y2 - y1)) ==> □_[5.0, 20.0] (9.0 <= (y5 - y4)))",adaptive,7.35608615210129E+018,22,14,-1.12233876932467,yes,[0.0 0.0 1.0; 50.0 0.25 1.0; 83.33333333333334 0.0 1.0; 100.0 0.0 1.0],2 2 3 3 3 4,0.25,300
CC5,cars,"□_[0.0, 72.0] ◇_[0.0, 8.0] (□_[0.0, 5.0] (9.0 <= (y2 - y1)) ==> □_[5.0, 20.0] (9.0 <= (y5 - y4)))",adaptive,3.92142907904627E+018,150,166,-0.129903983528198,yes,[0.0 0.0 0.0; 50.0 0.375 1.0; 83.33333333333334 0.0 1.0; 100.0 0.0 1.0],2 2 3 3 3 4,0.25,300
CC5,cars,"□_[0.0, 72.0] ◇_[0.0, 8.0] (□_[0.0, 5.0] (9.0 <= (y2 - y1)) ==> □_[5.0, 20.0] (9.0 <= (y5 - y4)))",adaptive,2.660485496997E+018,105,108,-0.067052512968381,yes,[0.0 0.25 1.0; 33.333333333333336 0.0 1.0; 83.33333333333334 1.0 1.0; 100.0 1.0 1.0],2 2 3 3 3 4,0.25,300
CC5,cars,"□_[0.0, 72.0] ◇_[0.0, 8.0] (□_[0.0, 5.0] (9.0 <= (y2 - y1)) ==> □_[5.0, 20.0] (9.0 <= (y5 - y4)))",adaptive,5.52146221413101E+018,181,176,-0.906171103695424,yes,[0.0 0.0 1.0; 50.0 0.25 1.0; 83.33333333333334 0.0 0.5; 100.0 0.0 0.5],2 2 3 3 3 4,0.25,300
CC5,cars,"□_[0.0, 72.0] ◇_[0.0, 8.0] (□_[0.0, 5.0] (9.0 <= (y2 - y1)) ==> □_[5.0, 20.0] (9.0 <= (y5 - y4)))",adaptive,1.07498312102285E+018,53,51,-0.147419884830573,yes,[0.0 0.25 0.75; 33.333333333333336 0.0 0.375; 66.66666666666667 0.0 0.625; 100.0 0.0 0.625],2 2 3 3 3 4,0.25,300
CC5,cars,"□_[0.0, 72.0] ◇_[0.0, 8.0] (□_[0.0, 5.0] (9.0 <= (y2 - y1)) ==> □_[5.0, 20.0] (9.0 <= (y5 - y4)))",adaptive,-7.29922093070366E+018,152,143,-0.129903983601214,yes,[0.0 0.375 1.0; 33.333333333333336 0.0 1.0; 83.33333333333334 0.0 0.0; 100.0 0.0 0.0],2 2 3 3 3 4,0.25,300
