%!PS-Adobe-3.0 EPSF-3.0
%%Creator: (MATLAB, The Mathworks, Inc. Version 9.12.0.1956245 \(R2022a\) Update 2. Operating System: Windows 10)
%%Title: ./results/plots/cora_07_VCAS_worst_1.eps
%%CreationDate: 2022-08-17T10:20:18
%%Pages: (atend)
%%BoundingBox:    16     5   387   295
%%LanguageLevel: 3
%%EndComments
%%BeginProlog
%%BeginResource: procset (Apache XML Graphics Std ProcSet) 1.2 0
%%Version: 1.2 0
%%Copyright: (Copyright 2001-2003,2010 The Apache Software Foundation. License terms: http://www.apache.org/licenses/LICENSE-2.0)
/bd{bind def}bind def
/ld{load def}bd
/GR/grestore ld
/GS/gsave ld
/RM/rmoveto ld
/C/curveto ld
/t/show ld
/L/lineto ld
/ML/setmiterlimit ld
/CT/concat ld
/f/fill ld
/N/newpath ld
/S/stroke ld
/CC/setcmykcolor ld
/A/ashow ld
/cp/closepath ld
/RC/setrgbcolor ld
/LJ/setlinejoin ld
/GC/setgray ld
/LW/setlinewidth ld
/M/moveto ld
/re {4 2 roll M
1 index 0 rlineto
0 exch rlineto
neg 0 rlineto
cp } bd
/_ctm matrix def
/_tm matrix def
/BT { _ctm currentmatrix pop matrix _tm copy pop 0 0 moveto } bd
/ET { _ctm setmatrix } bd
/iTm { _ctm setmatrix _tm concat } bd
/Tm { _tm astore pop iTm 0 0 moveto } bd
/ux 0.0 def
/uy 0.0 def
/F {
  /Tp exch def
  /Tf exch def
  Tf findfont Tp scalefont setfont
  /cf Tf def  /cs Tp def
} bd
/ULS {currentpoint /uy exch def /ux exch def} bd
/ULE {
  /Tcx currentpoint pop def
  gsave
  newpath
  cf findfont cs scalefont dup
  /FontMatrix get 0 get /Ts exch def /FontInfo get dup
  /UnderlinePosition get Ts mul /To exch def
  /UnderlineThickness get Ts mul /Tt exch def
  ux uy To add moveto  Tcx uy To add lineto
  Tt setlinewidth stroke
  grestore
} bd
/OLE {
  /Tcx currentpoint pop def
  gsave
  newpath
  cf findfont cs scalefont dup
  /FontMatrix get 0 get /Ts exch def /FontInfo get dup
  /UnderlinePosition get Ts mul /To exch def
  /UnderlineThickness get Ts mul /Tt exch def
  ux uy To add cs add moveto Tcx uy To add cs add lineto
  Tt setlinewidth stroke
  grestore
} bd
/SOE {
  /Tcx currentpoint pop def
  gsave
  newpath
  cf findfont cs scalefont dup
  /FontMatrix get 0 get /Ts exch def /FontInfo get dup
  /UnderlinePosition get Ts mul /To exch def
  /UnderlineThickness get Ts mul /Tt exch def
  ux uy To add cs 10 mul 26 idiv add moveto Tcx uy To add cs 10 mul 26 idiv add lineto
  Tt setlinewidth stroke
  grestore
} bd
/QT {
/Y22 exch store
/X22 exch store
/Y21 exch store
/X21 exch store
currentpoint
/Y21 load 2 mul add 3 div exch
/X21 load 2 mul add 3 div exch
/X21 load 2 mul /X22 load add 3 div
/Y21 load 2 mul /Y22 load add 3 div
/X22 load /Y22 load curveto
} bd
/SSPD {
dup length /d exch dict def
{
/v exch def
/k exch def
currentpagedevice k known {
/cpdv currentpagedevice k get def
v cpdv ne {
/upd false def
/nullv v type /nulltype eq def
/nullcpdv cpdv type /nulltype eq def
nullv nullcpdv or
{
/upd true def
} {
/sametype v type cpdv type eq def
sametype {
v type /arraytype eq {
/vlen v length def
/cpdvlen cpdv length def
vlen cpdvlen eq {
0 1 vlen 1 sub {
/i exch def
/obj v i get def
/cpdobj cpdv i get def
obj cpdobj ne {
/upd true def
exit
} if
} for
} {
/upd true def
} ifelse
} {
v type /dicttype eq {
v {
/dv exch def
/dk exch def
/cpddv cpdv dk get def
dv cpddv ne {
/upd true def
exit
} if
} forall
} {
/upd true def
} ifelse
} ifelse
} if
} ifelse
upd true eq {
d k v put
} if
} if
} if
} forall
d length 0 gt {
d setpagedevice
} if
} bd
/RE { % /NewFontName [NewEncodingArray] /FontName RE -
  findfont dup length dict begin
  {
    1 index /FID ne
    {def} {pop pop} ifelse
  } forall
  /Encoding exch def
  /FontName 1 index def
  currentdict definefont pop
  end
} bind def
%%EndResource
%%BeginResource: procset (Apache XML Graphics EPS ProcSet) 1.0 0
%%Version: 1.0 0
%%Copyright: (Copyright 2002-2003 The Apache Software Foundation. License terms: http://www.apache.org/licenses/LICENSE-2.0)
/BeginEPSF { %def
/b4_Inc_state save def         % Save state for cleanup
/dict_count countdictstack def % Count objects on dict stack
/op_count count 1 sub def      % Count objects on operand stack
userdict begin                 % Push userdict on dict stack
/showpage { } def              % Redefine showpage, { } = null proc
0 setgray 0 setlinecap         % Prepare graphics state
1 setlinewidth 0 setlinejoin
10 setmiterlimit [ ] 0 setdash newpath
/languagelevel where           % If level not equal to 1 then
{pop languagelevel             % set strokeadjust and
1 ne                           % overprint to their defaults.
{false setstrokeadjust false setoverprint
} if
} if
} bd
/EndEPSF { %def
count op_count sub {pop} repeat            % Clean up stacks
countdictstack dict_count sub {end} repeat
b4_Inc_state restore
} bd
%%EndResource
%FOPBeginFontDict
%%IncludeResource: font Courier-Oblique
%%IncludeResource: font Courier-BoldOblique
%%IncludeResource: font Courier-Bold
%%IncludeResource: font ZapfDingbats
%%IncludeResource: font Symbol
%%IncludeResource: font Helvetica
%%IncludeResource: font Helvetica-Oblique
%%IncludeResource: font Helvetica-Bold
%%IncludeResource: font Helvetica-BoldOblique
%%IncludeResource: font Times-Roman
%%IncludeResource: font Times-Italic
%%IncludeResource: font Times-Bold
%%IncludeResource: font Times-BoldItalic
%%IncludeResource: font Courier
%FOPEndFontDict
%%BeginResource: encoding WinAnsiEncoding
/WinAnsiEncoding [
/.notdef /.notdef /.notdef /.notdef /.notdef
/.notdef /.notdef /.notdef /.notdef /.notdef
/.notdef /.notdef /.notdef /.notdef /.notdef
/.notdef /.notdef /.notdef /.notdef /.notdef
/.notdef /.notdef /.notdef /.notdef /.notdef
/.notdef /.notdef /.notdef /.notdef /.notdef
/.notdef /.notdef /space /exclam /quotedbl
/numbersign /dollar /percent /ampersand /quotesingle
/parenleft /parenright /asterisk /plus /comma
/hyphen /period /slash /zero /one
/two /three /four /five /six
/seven /eight /nine /colon /semicolon
/less /equal /greater /question /at
/A /B /C /D /E
/F /G /H /I /J
/K /L /M /N /O
/P /Q /R /S /T
/U /V /W /X /Y
/Z /bracketleft /backslash /bracketright /asciicircum
/underscore /quoteleft /a /b /c
/d /e /f /g /h
/i /j /k /l /m
/n /o /p /q /r
/s /t /u /v /w
/x /y /z /braceleft /bar
/braceright /asciitilde /bullet /Euro /bullet
/quotesinglbase /florin /quotedblbase /ellipsis /dagger
/daggerdbl /circumflex /perthousand /Scaron /guilsinglleft
/OE /bullet /Zcaron /bullet /bullet
/quoteleft /quoteright /quotedblleft /quotedblright /bullet
/endash /emdash /asciitilde /trademark /scaron
/guilsinglright /oe /bullet /zcaron /Ydieresis
/space /exclamdown /cent /sterling /currency
/yen /brokenbar /section /dieresis /copyright
/ordfeminine /guillemotleft /logicalnot /sfthyphen /registered
/macron /degree /plusminus /twosuperior /threesuperior
/acute /mu /paragraph /middot /cedilla
/onesuperior /ordmasculine /guillemotright /onequarter /onehalf
/threequarters /questiondown /Agrave /Aacute /Acircumflex
/Atilde /Adieresis /Aring /AE /Ccedilla
/Egrave /Eacute /Ecircumflex /Edieresis /Igrave
/Iacute /Icircumflex /Idieresis /Eth /Ntilde
/Ograve /Oacute /Ocircumflex /Otilde /Odieresis
/multiply /Oslash /Ugrave /Uacute /Ucircumflex
/Udieresis /Yacute /Thorn /germandbls /agrave
/aacute /acircumflex /atilde /adieresis /aring
/ae /ccedilla /egrave /eacute /ecircumflex
/edieresis /igrave /iacute /icircumflex /idieresis
/eth /ntilde /ograve /oacute /ocircumflex
/otilde /odieresis /divide /oslash /ugrave
/uacute /ucircumflex /udieresis /yacute /thorn
/ydieresis
] def
%%EndResource
%FOPBeginFontReencode
/Courier-Oblique findfont
dup length dict begin
  {1 index /FID ne {def} {pop pop} ifelse} forall
  /Encoding WinAnsiEncoding def
  currentdict
end
/Courier-Oblique exch definefont pop
/Courier-BoldOblique findfont
dup length dict begin
  {1 index /FID ne {def} {pop pop} ifelse} forall
  /Encoding WinAnsiEncoding def
  currentdict
end
/Courier-BoldOblique exch definefont pop
/Courier-Bold findfont
dup length dict begin
  {1 index /FID ne {def} {pop pop} ifelse} forall
  /Encoding WinAnsiEncoding def
  currentdict
end
/Courier-Bold exch definefont pop
/Helvetica findfont
dup length dict begin
  {1 index /FID ne {def} {pop pop} ifelse} forall
  /Encoding WinAnsiEncoding def
  currentdict
end
/Helvetica exch definefont pop
/Helvetica-Oblique findfont
dup length dict begin
  {1 index /FID ne {def} {pop pop} ifelse} forall
  /Encoding WinAnsiEncoding def
  currentdict
end
/Helvetica-Oblique exch definefont pop
/Helvetica-Bold findfont
dup length dict begin
  {1 index /FID ne {def} {pop pop} ifelse} forall
  /Encoding WinAnsiEncoding def
  currentdict
end
/Helvetica-Bold exch definefont pop
/Helvetica-BoldOblique findfont
dup length dict begin
  {1 index /FID ne {def} {pop pop} ifelse} forall
  /Encoding WinAnsiEncoding def
  currentdict
end
/Helvetica-BoldOblique exch definefont pop
/Times-Roman findfont
dup length dict begin
  {1 index /FID ne {def} {pop pop} ifelse} forall
  /Encoding WinAnsiEncoding def
  currentdict
end
/Times-Roman exch definefont pop
/Times-Italic findfont
dup length dict begin
  {1 index /FID ne {def} {pop pop} ifelse} forall
  /Encoding WinAnsiEncoding def
  currentdict
end
/Times-Italic exch definefont pop
/Times-Bold findfont
dup length dict begin
  {1 index /FID ne {def} {pop pop} ifelse} forall
  /Encoding WinAnsiEncoding def
  currentdict
end
/Times-Bold exch definefont pop
/Times-BoldItalic findfont
dup length dict begin
  {1 index /FID ne {def} {pop pop} ifelse} forall
  /Encoding WinAnsiEncoding def
  currentdict
end
/Times-BoldItalic exch definefont pop
/Courier findfont
dup length dict begin
  {1 index /FID ne {def} {pop pop} ifelse} forall
  /Encoding WinAnsiEncoding def
  currentdict
end
/Courier exch definefont pop
%FOPEndFontReencode
%%EndProlog
%%Page: 1 1
%%PageBoundingBox: 0 0 420 315
%%BeginPageSetup
N
   16     5 M
  403     5 L
  403   300 L
   16   300 L
cp
clip
[1 0 0 -1 0 315] CT
%%EndPageSetup
GS
[0.75 0 0 0.75 0 0] CT
1 GC
N
0 0 560 420 re
f
GR
GS
[0.75 0 0 0.75 0 0] CT
1 GC
N
0 0 560 420 re
f
GR
GS
[0.75 0 0 0.75 0 0] CT
1 GC
N
73 374 M
507 374 L
507 31 L
73 31 L
cp
f
GR
GS
[0.75 0 0 0.75 0 0] CT
0.149 GC
2 setlinecap
1 LJ
0.667 LW
N
73 374 M
507 374 L
S
GR
GS
[0.75 0 0 0.75 0 0] CT
0.149 GC
2 setlinecap
1 LJ
0.667 LW
N
73 31 M
507 31 L
S
GR
GS
[0.75 0 0 0.75 0 0] CT
0.149 GC
2 setlinecap
1 LJ
0.667 LW
N
73 374 M
73 369.66 L
S
GR
GS
[0.75 0 0 0.75 0 0] CT
0.149 GC
2 setlinecap
1 LJ
0.667 LW
N
116.4 374 M
116.4 369.66 L
S
GR
GS
[0.75 0 0 0.75 0 0] CT
0.149 GC
2 setlinecap
1 LJ
0.667 LW
N
159.8 374 M
159.8 369.66 L
S
GR
GS
[0.75 0 0 0.75 0 0] CT
0.149 GC
2 setlinecap
1 LJ
0.667 LW
N
203.2 374 M
203.2 369.66 L
S
GR
GS
[0.75 0 0 0.75 0 0] CT
0.149 GC
2 setlinecap
1 LJ
0.667 LW
N
246.6 374 M
246.6 369.66 L
S
GR
GS
[0.75 0 0 0.75 0 0] CT
0.149 GC
2 setlinecap
1 LJ
0.667 LW
N
290 374 M
290 369.66 L
S
GR
GS
[0.75 0 0 0.75 0 0] CT
0.149 GC
2 setlinecap
1 LJ
0.667 LW
N
333.4 374 M
333.4 369.66 L
S
GR
GS
[0.75 0 0 0.75 0 0] CT
0.149 GC
2 setlinecap
1 LJ
0.667 LW
N
376.8 374 M
376.8 369.66 L
S
GR
GS
[0.75 0 0 0.75 0 0] CT
0.149 GC
2 setlinecap
1 LJ
0.667 LW
N
420.2 374 M
420.2 369.66 L
S
GR
GS
[0.75 0 0 0.75 0 0] CT
0.149 GC
2 setlinecap
1 LJ
0.667 LW
N
463.6 374 M
463.6 369.66 L
S
GR
GS
[0.75 0 0 0.75 0 0] CT
0.149 GC
2 setlinecap
1 LJ
0.667 LW
N
507 374 M
507 369.66 L
S
GR
GS
[0.75 0 0 0.75 0 0] CT
0.149 GC
2 setlinecap
1 LJ
0.667 LW
N
73 31 M
73 35.34 L
S
GR
GS
[0.75 0 0 0.75 0 0] CT
0.149 GC
2 setlinecap
1 LJ
0.667 LW
N
116.4 31 M
116.4 35.34 L
S
GR
GS
[0.75 0 0 0.75 0 0] CT
0.149 GC
2 setlinecap
1 LJ
0.667 LW
N
159.8 31 M
159.8 35.34 L
S
GR
GS
[0.75 0 0 0.75 0 0] CT
0.149 GC
2 setlinecap
1 LJ
0.667 LW
N
203.2 31 M
203.2 35.34 L
S
GR
GS
[0.75 0 0 0.75 0 0] CT
0.149 GC
2 setlinecap
1 LJ
0.667 LW
N
246.6 31 M
246.6 35.34 L
S
GR
GS
[0.75 0 0 0.75 0 0] CT
0.149 GC
2 setlinecap
1 LJ
0.667 LW
N
290 31 M
290 35.34 L
S
GR
GS
[0.75 0 0 0.75 0 0] CT
0.149 GC
2 setlinecap
1 LJ
0.667 LW
N
333.4 31 M
333.4 35.34 L
S
GR
GS
[0.75 0 0 0.75 0 0] CT
0.149 GC
2 setlinecap
1 LJ
0.667 LW
N
376.8 31 M
376.8 35.34 L
S
GR
GS
[0.75 0 0 0.75 0 0] CT
0.149 GC
2 setlinecap
1 LJ
0.667 LW
N
420.2 31 M
420.2 35.34 L
S
GR
GS
[0.75 0 0 0.75 0 0] CT
0.149 GC
2 setlinecap
1 LJ
0.667 LW
N
463.6 31 M
463.6 35.34 L
S
GR
GS
[0.75 0 0 0.75 0 0] CT
0.149 GC
2 setlinecap
1 LJ
0.667 LW
N
507 31 M
507 35.34 L
S
GR
GS
[0.75 0 0 0.75 54.75 284.49998] CT
0.149 GC
/Helvetica 13.333 F
GS
[1 0 0 1 0 0] CT
-10 14 moveto 
1 -1 scale
(-25) t 
GR
GR
GS
[0.75 0 0 0.75 87.3 284.49998] CT
0.149 GC
/Helvetica 13.333 F
GS
[1 0 0 1 0 0] CT
-10 14 moveto 
1 -1 scale
(-24) t 
GR
GR
GS
[0.75 0 0 0.75 119.85 284.49998] CT
0.149 GC
/Helvetica 13.333 F
GS
[1 0 0 1 0 0] CT
-10 14 moveto 
1 -1 scale
(-23) t 
GR
GR
GS
[0.75 0 0 0.75 152.4 284.49998] CT
0.149 GC
/Helvetica 13.333 F
GS
[1 0 0 1 0 0] CT
-10 14 moveto 
1 -1 scale
(-22) t 
GR
GR
GS
[0.75 0 0 0.75 184.95 284.49998] CT
0.149 GC
/Helvetica 13.333 F
GS
[1 0 0 1 0 0] CT
-10 14 moveto 
1 -1 scale
(-21) t 
GR
GR
GS
[0.75 0 0 0.75 217.5 284.49998] CT
0.149 GC
/Helvetica 13.333 F
GS
[1 0 0 1 0 0] CT
-10 14 moveto 
1 -1 scale
(-20) t 
GR
GR
GS
[0.75 0 0 0.75 250.05 284.49998] CT
0.149 GC
/Helvetica 13.333 F
GS
[1 0 0 1 0 0] CT
-10 14 moveto 
1 -1 scale
(-19) t 
GR
GR
GS
[0.75 0 0 0.75 282.59999 284.49998] CT
0.149 GC
/Helvetica 13.333 F
GS
[1 0 0 1 0 0] CT
-10 14 moveto 
1 -1 scale
(-18) t 
GR
GR
GS
[0.75 0 0 0.75 315.15001 284.49998] CT
0.149 GC
/Helvetica 13.333 F
GS
[1 0 0 1 0 0] CT
-10 14 moveto 
1 -1 scale
(-17) t 
GR
GR
GS
[0.75 0 0 0.75 347.7 284.49998] CT
0.149 GC
/Helvetica 13.333 F
GS
[1 0 0 1 0 0] CT
-10 14 moveto 
1 -1 scale
(-16) t 
GR
GR
GS
[0.75 0 0 0.75 380.25 284.49998] CT
0.149 GC
/Helvetica 13.333 F
GS
[1 0 0 1 0 0] CT
-10 14 moveto 
1 -1 scale
(-15) t 
GR
GR
GS
[0.75 0 0 0.75 198.75 309.75] CT
0.149 GC
/Helvetica 14.667 F
GS
[1 0 0 1 0 0] CT
0 0 moveto 
1 -1 scale
(Time -) t 
GR
GR
GS
[0.75 0 0 0.75 230.25 309.75] CT
0.149 GC
N
2.344 -0.234 M
2.344 -0.328 2.359 -0.391 QT
3.938 -5.531 L
2.578 -5.531 L
2.031 -5.531 1.555 -5.188 QT
1.078 -4.844 0.766 -4.328 QT
0.734 -4.266 0.672 -4.266 QT
0.5 -4.266 L
0.359 -4.266 0.359 -4.406 QT
0.359 -4.438 0.391 -4.5 QT
0.875 -5.328 1.438 -5.898 QT
2 -6.469 2.703 -6.469 QT
7.297 -6.469 L
7.469 -6.469 7.578 -6.359 QT
7.688 -6.25 7.688 -6.094 QT
7.688 -5.859 7.531 -5.695 QT
7.375 -5.531 7.141 -5.531 QT
4.422 -5.531 L
3.422 -0.359 L
3.359 -0.125 3.203 0.039 QT
3.047 0.203 2.797 0.203 QT
2.594 0.203 2.469 0.078 QT
2.344 -0.047 2.344 -0.234 QT
cp
f
GR
GS
[0.75 0 0 0.75 0 0] CT
0.149 GC
2 setlinecap
1 LJ
0.667 LW
N
73 374 M
73 31 L
S
GR
GS
[0.75 0 0 0.75 0 0] CT
0.149 GC
2 setlinecap
1 LJ
0.667 LW
N
507 374 M
507 31 L
S
GR
GS
[0.75 0 0 0.75 0 0] CT
0.149 GC
2 setlinecap
1 LJ
0.667 LW
N
73 374 M
77.34 374 L
S
GR
GS
[0.75 0 0 0.75 0 0] CT
0.149 GC
2 setlinecap
1 LJ
0.667 LW
N
73 335.889 M
77.34 335.889 L
S
GR
GS
[0.75 0 0 0.75 0 0] CT
0.149 GC
2 setlinecap
1 LJ
0.667 LW
N
73 297.778 M
77.34 297.778 L
S
GR
GS
[0.75 0 0 0.75 0 0] CT
0.149 GC
2 setlinecap
1 LJ
0.667 LW
N
73 259.667 M
77.34 259.667 L
S
GR
GS
[0.75 0 0 0.75 0 0] CT
0.149 GC
2 setlinecap
1 LJ
0.667 LW
N
73 221.556 M
77.34 221.556 L
S
GR
GS
[0.75 0 0 0.75 0 0] CT
0.149 GC
2 setlinecap
1 LJ
0.667 LW
N
73 183.444 M
77.34 183.444 L
S
GR
GS
[0.75 0 0 0.75 0 0] CT
0.149 GC
2 setlinecap
1 LJ
0.667 LW
N
73 145.333 M
77.34 145.333 L
S
GR
GS
[0.75 0 0 0.75 0 0] CT
0.149 GC
2 setlinecap
1 LJ
0.667 LW
N
73 107.222 M
77.34 107.222 L
S
GR
GS
[0.75 0 0 0.75 0 0] CT
0.149 GC
2 setlinecap
1 LJ
0.667 LW
N
73 69.111 M
77.34 69.111 L
S
GR
GS
[0.75 0 0 0.75 0 0] CT
0.149 GC
2 setlinecap
1 LJ
0.667 LW
N
73 31 M
77.34 31 L
S
GR
GS
[0.75 0 0 0.75 0 0] CT
0.149 GC
2 setlinecap
1 LJ
0.667 LW
N
507 374 M
502.66 374 L
S
GR
GS
[0.75 0 0 0.75 0 0] CT
0.149 GC
2 setlinecap
1 LJ
0.667 LW
N
507 335.889 M
502.66 335.889 L
S
GR
GS
[0.75 0 0 0.75 0 0] CT
0.149 GC
2 setlinecap
1 LJ
0.667 LW
N
507 297.778 M
502.66 297.778 L
S
GR
GS
[0.75 0 0 0.75 0 0] CT
0.149 GC
2 setlinecap
1 LJ
0.667 LW
N
507 259.667 M
502.66 259.667 L
S
GR
GS
[0.75 0 0 0.75 0 0] CT
0.149 GC
2 setlinecap
1 LJ
0.667 LW
N
507 221.556 M
502.66 221.556 L
S
GR
GS
[0.75 0 0 0.75 0 0] CT
0.149 GC
2 setlinecap
1 LJ
0.667 LW
N
507 183.444 M
502.66 183.444 L
S
GR
GS
[0.75 0 0 0.75 0 0] CT
0.149 GC
2 setlinecap
1 LJ
0.667 LW
N
507 145.333 M
502.66 145.333 L
S
GR
GS
[0.75 0 0 0.75 0 0] CT
0.149 GC
2 setlinecap
1 LJ
0.667 LW
N
507 107.222 M
502.66 107.222 L
S
GR
GS
[0.75 0 0 0.75 0 0] CT
0.149 GC
2 setlinecap
1 LJ
0.667 LW
N
507 69.111 M
502.66 69.111 L
S
GR
GS
[0.75 0 0 0.75 0 0] CT
0.149 GC
2 setlinecap
1 LJ
0.667 LW
N
507 31 M
502.66 31 L
S
GR
GS
[0.75 0 0 0.75 50.74998 280.5] CT
0.149 GC
/Helvetica 13.333 F
GS
[1 0 0 1 0 0] CT
-27 5.5 moveto 
1 -1 scale
(-350) t 
GR
GR
GS
[0.75 0 0 0.75 50.74998 251.91666] CT
0.149 GC
/Helvetica 13.333 F
GS
[1 0 0 1 0 0] CT
-27 5.5 moveto 
1 -1 scale
(-300) t 
GR
GR
GS
[0.75 0 0 0.75 50.74998 223.33333] CT
0.149 GC
/Helvetica 13.333 F
GS
[1 0 0 1 0 0] CT
-27 5.5 moveto 
1 -1 scale
(-250) t 
GR
GR
GS
[0.75 0 0 0.75 50.74998 194.74999] CT
0.149 GC
/Helvetica 13.333 F
GS
[1 0 0 1 0 0] CT
-27 5.5 moveto 
1 -1 scale
(-200) t 
GR
GR
GS
[0.75 0 0 0.75 50.74998 166.16667] CT
0.149 GC
/Helvetica 13.333 F
GS
[1 0 0 1 0 0] CT
-27 5.5 moveto 
1 -1 scale
(-150) t 
GR
GR
GS
[0.75 0 0 0.75 50.74998 137.58333] CT
0.149 GC
/Helvetica 13.333 F
GS
[1 0 0 1 0 0] CT
-27 5.5 moveto 
1 -1 scale
(-100) t 
GR
GR
GS
[0.75 0 0 0.75 50.74998 109] CT
0.149 GC
/Helvetica 13.333 F
GS
[1 0 0 1 0 0] CT
-20 5.5 moveto 
1 -1 scale
(-50) t 
GR
GR
GS
[0.75 0 0 0.75 50.74998 80.41667] CT
0.149 GC
/Helvetica 13.333 F
GS
[1 0 0 1 0 0] CT
-8 5.5 moveto 
1 -1 scale
(0) t 
GR
GR
GS
[0.75 0 0 0.75 50.74998 51.83334] CT
0.149 GC
/Helvetica 13.333 F
GS
[1 0 0 1 0 0] CT
-15 5.5 moveto 
1 -1 scale
(50) t 
GR
GR
GS
[0.75 0 0 0.75 50.74998 23.25] CT
0.149 GC
/Helvetica 13.333 F
GS
[1 0 0 1 0 0] CT
-23 5.5 moveto 
1 -1 scale
(100) t 
GR
GR
GS
[0 -0.75 0.75 0 27.5 151.87487] CT
0.149 GC
/Helvetica 14.667 F
GS
[1 0 0 1 0 0] CT
-140 -4 moveto 
1 -1 scale
(h \(Relative Position of Intruder to Ownship\)) t 
GR
GR
GS
[0.75 0 0 0.75 0 0] CT
0.9 0.498 0.498 RC
N
73 31 M
73 183.444 L
507 183.444 L
507 31 L
cp
f
GR
GS
[0.75 0 0 0.75 0 0] CT
0.8 0 0 RC
2 setlinecap
10.0 ML
0.667 LW
N
73 183.444 M
507 183.444 L
507 31 L
73 31 L
73 183.444 L
73 183.444 L
S
GR
GS
[0.75 0 0 0.75 54.75 156.29042] CT
N
1.333 0 M
1.333 0.736 0.736 1.333 0 1.333 C
-0.736 1.333 -1.333 0.736 -1.333 0 C
-1.333 -0.736 -0.736 -1.333 0 -1.333 C
0.736 -1.333 1.333 -0.736 1.333 0 C
cp
f
GR
GS
[0.75 0 0 0.75 54.75 154.45135] CT
N
/f-1057828618{1.333 0 M
1.333 0.736 0.736 1.333 0 1.333 C
-0.736 1.333 -1.333 0.736 -1.333 0 C
-1.333 -0.736 -0.736 -1.333 0 -1.333 C
0.736 -1.333 1.333 -0.736 1.333 0 C
cp}def
f-1057828618
f
GR
GS
[0.75 0 0 0.75 54.75 155.44251] CT
N
f-1057828618
f
GR
GS
[0.75 0 0 0.75 54.75 154.92371] CT
N
f-1057828618
f
GR
GS
[0.75 0 0 0.75 54.75 154.19207] CT
N
f-1057828618
f
GR
GS
[0.75 0 0 0.75 54.75 155.2128] CT
N
f-1057828618
f
GR
GS
[0.75 0 0 0.75 54.75 156.14692] CT
N
f-1057828618
f
GR
GS
[0.75 0 0 0.75 54.75 155.71366] CT
N
f-1057828618
f
GR
GS
[0.75 0 0 0.75 54.75 154.67317] CT
N
f-1057828618
f
GR
GS
[0.75 0 0 0.75 54.75 154.55642] CT
N
f-1057828618
f
GR
GS
[0.75 0 0 0.75 87.3 143.74323] CT
N
f-1057828618
f
GR
GS
[0.75 0 0 0.75 87.3 142.07191] CT
N
f-1057828618
f
GR
GS
[0.75 0 0 0.75 87.3 142.95956] CT
N
f-1057828618
f
GR
GS
[0.75 0 0 0.75 87.3 142.80516] CT
N
f-1057828618
f
GR
GS
[0.75 0 0 0.75 87.3 142.98367] CT
N
f-1057828618
f
GR
GS
[0.75 0 0 0.75 87.3 142.69807] CT
N
f-1057828618
f
GR
GS
[0.75 0 0 0.75 87.3 146.1512] CT
N
f-1057828618
f
GR
GS
[0.75 0 0 0.75 87.3 144.17215] CT
N
f-1057828618
f
GR
GS
[0.75 0 0 0.75 87.3 144.70093] CT
N
f-1057828618
f
GR
GS
[0.75 0 0 0.75 87.3 142.9707] CT
N
f-1057828618
f
GR
GS
[0.75 0 0 0.75 119.85 135.79796] CT
N
f-1057828618
f
GR
GS
[0.75 0 0 0.75 119.85 134.29439] CT
N
f-1057828618
f
GR
GS
[0.75 0 0 0.75 119.85 135.07854] CT
N
f-1057828618
f
GR
GS
[0.75 0 0 0.75 119.85 135.28852] CT
N
f-1057828618
f
GR
GS
[0.75 0 0 0.75 119.85 136.37719] CT
N
f-1057828618
f
GR
GS
[0.75 0 0 0.75 119.85 134.78527] CT
N
f-1057828618
f
GR
GS
[0.75 0 0 0.75 119.85 140.7574] CT
N
f-1057828618
f
GR
GS
[0.75 0 0 0.75 119.85 137.23255] CT
N
f-1057828618
f
GR
GS
[0.75 0 0 0.75 119.85 139.3306] CT
N
f-1057828618
f
GR
GS
[0.75 0 0 0.75 119.85 135.98688] CT
N
f-1057828618
f
GR
GS
[0.75 0 0 0.75 152.4 132.45461] CT
N
f-1057828618
f
GR
GS
[0.75 0 0 0.75 152.4 131.11878] CT
N
f-1057828618
f
GR
GS
[0.75 0 0 0.75 152.4 131.79943] CT
N
f-1057828618
f
GR
GS
[0.75 0 0 0.75 152.4 132.37379] CT
N
f-1057828618
f
GR
GS
[0.75 0 0 0.75 152.4 134.37262] CT
N
f-1057828618
f
GR
GS
[0.75 0 0 0.75 152.4 131.47438] CT
N
f-1057828618
f
GR
GS
[0.75 0 0 0.75 152.4 139.96551] CT
N
f-1057828618
f
GR
GS
[0.75 0 0 0.75 152.4 134.89487] CT
N
f-1057828618
f
GR
GS
[0.75 0 0 0.75 152.4 138.56219] CT
N
f-1057828618
f
GR
GS
[0.75 0 0 0.75 152.4 133.605] CT
N
f-1057828618
f
GR
GS
[0.75 0 0 0.75 184.95 133.71317] CT
N
f-1057828618
f
GR
GS
[0.75 0 0 0.75 184.95 132.54509] CT
N
f-1057828618
f
GR
GS
[0.75 0 0 0.75 184.95 133.12223] CT
N
f-1057828618
f
GR
GS
[0.75 0 0 0.75 184.95 134.06098] CT
N
f-1057828618
f
GR
GS
[0.75 0 0 0.75 184.95 136.96996] CT
N
f-1057828618
f
GR
GS
[0.75 0 0 0.75 184.95 132.76542] CT
N
f-1057828618
f
GR
GS
[0.75 0 0 0.75 184.95 143.77555] CT
N
f-1057828618
f
GR
GS
[0.75 0 0 0.75 184.95 137.15911] CT
N
f-1057828618
f
GR
GS
[0.75 0 0 0.75 184.95 142.39569] CT
N
f-1057828618
f
GR
GS
[0.75 0 0 0.75 184.95 135.82502] CT
N
f-1057828618
f
GR
GS
[0.75 0 0 0.75 217.5 139.57364] CT
N
f-1057828618
f
GR
GS
[0.75 0 0 0.75 217.5 138.57333] CT
N
f-1057828618
f
GR
GS
[0.75 0 0 0.75 217.5 139.04695] CT
N
f-1057828618
f
GR
GS
[0.75 0 0 0.75 217.5 140.35009] CT
N
f-1057828618
f
GR
GS
[0.75 0 0 0.75 217.5 144.16922] CT
N
f-1057828618
f
GR
GS
[0.75 0 0 0.75 217.5 138.65837] CT
N
f-1057828618
f
GR
GS
[0.75 0 0 0.75 217.5 152.18749] CT
N
f-1057828618
f
GR
GS
[0.75 0 0 0.75 217.5 144.02527] CT
N
f-1057828618
f
GR
GS
[0.75 0 0 0.75 217.5 150.83112] CT
N
f-1057828618
f
GR
GS
[0.75 0 0 0.75 217.5 142.64697] CT
N
f-1057828618
f
GR
GS
[0.75 0 0 0.75 250.05 150.03604] CT
N
f-1057828618
f
GR
GS
[0.75 0 0 0.75 250.05 149.20347] CT
N
f-1057828618
f
GR
GS
[0.75 0 0 0.75 250.05 149.57359] CT
N
f-1057828618
f
GR
GS
[0.75 0 0 0.75 250.05 151.24112] CT
N
f-1057828618
f
GR
GS
[0.75 0 0 0.75 250.05 155.97042] CT
N
f-1057828618
f
GR
GS
[0.75 0 0 0.75 250.05 149.15323] CT
N
f-1057828618
f
GR
GS
[0.75 0 0 0.75 250.05 165.20135] CT
N
f-1057828618
f
GR
GS
[0.75 0 0 0.75 250.05 155.49334] CT
N
f-1057828618
f
GR
GS
[0.75 0 0 0.75 250.05 163.86845] CT
N
f-1057828618
f
GR
GS
[0.75 0 0 0.75 250.05 154.07081] CT
N
f-1057828618
f
GR
GS
[0.75 0 0 0.75 282.59999 165.10035] CT
N
f-1057828618
f
GR
GS
[0.75 0 0 0.75 282.59999 164.43552] CT
N
f-1057828618
f
GR
GS
[0.75 0 0 0.75 282.59999 164.70216] CT
N
f-1057828618
f
GR
GS
[0.75 0 0 0.75 282.59999 166.73405] CT
N
f-1057828618
f
GR
GS
[0.75 0 0 0.75 282.59999 172.37351] CT
N
f-1057828618
f
GR
GS
[0.75 0 0 0.75 282.59999 164.25] CT
N
f-1057828618
f
GR
GS
[0.75 0 0 0.75 282.59999 182.81713] CT
N
f-1057828618
f
GR
GS
[0.75 0 0 0.75 282.59999 171.56332] CT
N
f-1057828618
f
GR
GS
[0.75 0 0 0.75 282.59999 181.5077] CT
N
f-1057828618
f
GR
GS
[0.75 0 0 0.75 282.59999 170.09659] CT
N
f-1057828618
f
GR
GS
[0.75 0 0 0.75 315.15001 184.76658] CT
N
f-1057828618
f
GR
GS
[0.75 0 0 0.75 315.15001 184.2695] CT
N
f-1057828618
f
GR
GS
[0.75 0 0 0.75 315.15001 184.43262] CT
N
f-1057828618
f
GR
GS
[0.75 0 0 0.75 315.15001 186.82892] CT
N
f-1057828618
f
GR
GS
[0.75 0 0 0.75 315.15001 193.37851] CT
N
f-1057828618
f
GR
GS
[0.75 0 0 0.75 315.15001 183.94869] CT
N
f-1057828618
f
GR
GS
[0.75 0 0 0.75 315.15001 205.03484] CT
N
f-1057828618
f
GR
GS
[0.75 0 0 0.75 315.15001 192.23522] CT
N
f-1057828618
f
GR
GS
[0.75 0 0 0.75 315.15001 203.74887] CT
N
f-1057828618
f
GR
GS
[0.75 0 0 0.75 315.15001 190.72428] CT
N
f-1057828618
f
GR
GS
[0.75 0 0 0.75 347.7 209.03471] CT
N
f-1057828618
f
GR
GS
[0.75 0 0 0.75 347.7 208.7054] CT
N
f-1057828618
f
GR
GS
[0.75 0 0 0.75 347.7 208.765] CT
N
f-1057828618
f
GR
GS
[0.75 0 0 0.75 347.7 211.5257] CT
N
f-1057828618
f
GR
GS
[0.75 0 0 0.75 347.7 218.98544] CT
N
f-1057828618
f
GR
GS
[0.75 0 0 0.75 347.7 208.24931] CT
N
f-1057828618
f
GR
GS
[0.75 0 0 0.75 347.7 231.85444] CT
N
f-1057828618
f
GR
GS
[0.75 0 0 0.75 347.7 217.50904] CT
N
f-1057828618
f
GR
GS
[0.75 0 0 0.75 347.7 230.59197] CT
N
f-1057828618
f
GR
GS
[0.75 0 0 0.75 347.7 215.95388] CT
N
f-1057828618
f
GR
GS
[0.75 0 0 0.75 380.25 237.90477] CT
N
f-1057828618
f
GR
GS
[0.75 0 0 0.75 380.25 237.7432] CT
N
f-1057828618
f
GR
GS
[0.75 0 0 0.75 380.25 237.69933] CT
N
f-1057828618
f
GR
GS
[0.75 0 0 0.75 380.25 240.82439] CT
N
f-1057828618
f
GR
GS
[0.75 0 0 0.75 380.25 249.1943] CT
N
f-1057828618
f
GR
GS
[0.75 0 0 0.75 380.25 237.15184] CT
N
f-1057828618
f
GR
GS
[0.75 0 0 0.75 380.25 263.27598] CT
N
f-1057828618
f
GR
GS
[0.75 0 0 0.75 380.25 247.38478] CT
N
f-1057828618
f
GR
GS
[0.75 0 0 0.75 380.25 262.03697] CT
N
f-1057828618
f
GR
GS
[0.75 0 0 0.75 380.25 245.78542] CT
N
f-1057828618
f
GR
GS
[0.75 0 0 0.75 0 0] CT
1 GC
N
496 78 M
496 42 L
382 42 L
382 78 L
cp
f
GR
GS
[0.75 0 0 0.75 321.75 38.89726] CT
/Helvetica 12 F
GS
[1 0 0 1 0 0] CT
0 5 moveto 
1 -1 scale
(NMAC) t 
GR
GR
GS
[0.75 0 0 0.75 0 0] CT
0.9 0.498 0.498 RC
N
426 57.781 M
426 45.945 L
386 45.945 L
386 57.781 L
cp
f
GR
GS
[0.75 0 0 0.75 0 0] CT
0.8 0 0 RC
10.0 ML
0.667 LW
N
386 57.781 M
386 45.945 L
426 45.945 L
426 57.781 L
cp
S
GR
GS
[0.75 0 0 0.75 321.75 51.10274] CT
/Helvetica 12 F
GS
[1 0 0 1 0 0] CT
0 5 moveto 
1 -1 scale
(Simulations) t 
GR
GR
GS
[0.75 0 0 0.75 304.5 51.10274] CT
N
f-1057828618
f
GR
GS
[0.75 0 0 0.75 0 0] CT
0.149 GC
10.0 ML
0.667 LW
N
382 78 M
382 42 L
496 42 L
496 78 L
cp
S
GR
%%Trailer
%%Pages: 1
%%EOF
